"UUID","PKEY_SRC","PARTY_PKEY_SRC","ENTITY_CD","ELECTRONIC_ADDR_TYPE_CD","ELECTRONIC_ADDR_VALUE","DEL_FLG","SOURCE_ROWID","SRC_ROWID","SRC_SYSTEM_CD","TRANSACTION_FLAG","BATCH_ID","LAST_UPDATE_DATE"
RLS:500-0000028:OWN:EML:12287456,RLS:500-0000028:OWN:EML,RLS:500-0000028:OWN,LTH,EML,"080101000102@dxx.xc.xh",,,,RLS,I,"12287456",2023-04-11 16:06:32.000
RLS:500-0008000:OWN:EML:12287456,RLS:500-0008000:OWN:EML,RLS:500-0008000:OWN,LTH,EML,"0002088@email.com",,,,RLS,I,"12287456",2023-04-11 16:06:32.000
RLS:500-0008003:OWN:EML:12287456,RLS:500-0008003:OWN:EML,RLS:500-0008003:OWN,LTH,EML,fixxXkx@xxil.xu,,,,RLS,I,"12287456",2023-04-11 16:06:32.000
RLS:500-0008803:OWN:EML:12287456,RLS:500-0008803:OWN:EML,RLS:500-0008803:OWN,LTH,EML,"0001082800@email.com",,,,RLS,I,"12287456",2023-04-11 16:06:32.000
RLS:500-0008820:OWN:EML:12287456,RLS:500-0008820:OWN:EML,RLS:500-0008820:OWN,LTH,EML,XoixXdXxxo@email.com,,,,RLS,I,"12287456",2023-04-11 16:06:32.000
RLS:500-0050000:OWN:EML:12287456,RLS:500-0050000:OWN:EML,RLS:500-0050000:OWN,LTH,EML,"00010211182@xXXu.xc.xh",,,,RLS,I,"12287456",2023-04-11 16:06:32.000
RLS:500-0050033:OWN:EML:12287456,RLS:500-0050033:OWN:EML,RLS:500-0050033:OWN,LTH,EML,"0juXe02000@email.com",,,,RLS,I,"12287456",2023-04-11 16:06:32.000
RLS:500-0052003:OWN:EML:12287456,RLS:500-0052003:OWN:EML,RLS:500-0052003:OWN,LTH,EML,"00KIxxIXX@email.com",,,,RLS,I,"12287456",2023-04-11 16:06:32.000
RLS:500-0055030:OWN:EML:12287456,RLS:500-0055030:OWN:EML,RLS:500-0055030:OWN,LTH,EML,"0031200080xiXg@email.com",,,,RLS,I,"12287456",2023-04-11 16:06:32.000
RLS:500-0055305:OWN:EML:12287456,RLS:500-0055305:OWN:EML,RLS:500-0055305:OWN,LTH,EML,WWGxxCE00@email.com,,,,RLS,I,"12287456",2023-04-11 16:06:32.000
RLS:500-0055520:OWN:EML:12287456,RLS:500-0055520:OWN:EML,RLS:500-0055520:OWN,LTH,EML,"0020021000@xbxu.xc.xh",,,,RLS,I,"12287456",2023-04-11 16:06:32.000
RLS:500-0080550:OWN:EML:12287456,RLS:500-0080550:OWN:EML,RLS:500-0080550:OWN,LTH,EML,"002083000x@email.com",,,,RLS,I,"12287456",2023-04-11 16:06:32.000
RLS:500-0080886:OWN:EML:12287456,RLS:500-0080886:OWN:EML,RLS:500-0080886:OWN,LTH,EML,"002303@egxx.co.xh",,,,RLS,I,"12287456",2023-04-11 16:06:32.000
RLS:500-0085660:OWN:EML:12287456,RLS:500-0085660:OWN:EML,RLS:500-0085660:OWN,LTH,EML,"0030xExLxE@email.com",,,,RLS,I,"12287456",2023-04-11 16:06:32.000
RLS:500-0200020:OWN:EML:12287456,RLS:500-0200020:OWN:EML,RLS:500-0200020:OWN,LTH,EML,"00230020@xxxICHxx.XXKxU.CO.xH",,,,RLS,I,"12287456",2023-04-11 16:06:32.000
RLS:500-0255000:OWN:EML:12287456,RLS:500-0255000:OWN:EML,RLS:500-0255000:OWN,LTH,EML,KuxiXXxxx@kxxxx.com,,,,RLS,I,"12287456",2023-04-11 16:06:32.000
RLS:500-0300202:OWN:EML:12287456,RLS:500-0300202:OWN:EML,RLS:500-0300202:OWN,LTH,EML,"000_20@email.com",,,,RLS,I,"12287456",2023-04-11 16:06:32.000
RLS:500-0300305:OWN:EML:12287456,RLS:500-0300305:OWN:EML,RLS:500-0300305:OWN,LTH,EML,"0303000000@xuxxil.xu.xc.xh",,,,RLS,I,"12287456",2023-04-11 16:06:32.000
RLS:500-0300860:OWN:EML:12287456,RLS:500-0300860:OWN:EML,RLS:500-0300860:OWN,LTH,EML,"0010200010xx@email.com",,,,RLS,I,"12287456",2023-04-11 16:06:32.000
RLS:500-0500002:OWN:EML:12287456,RLS:500-0500002:OWN:EML,RLS:500-0500002:OWN,LTH,EML,BOOXIE_XXI@email.com,,,,RLS,I,"12287456",2023-04-11 16:06:32.000
RLS:500-0500550:OWN:EML:12287456,RLS:500-0500550:OWN:EML,RLS:500-0500550:OWN,LTH,EML,"0003002000xeXuXX@email.com",,,,RLS,I,"12287456",2023-04-11 16:06:32.000
RLS:500-0500852:OWN:EML:12287456,RLS:500-0500852:OWN:EML,RLS:500-0500852:OWN,LTH,EML,xox.xuxxx00@email.com,,,,RLS,I,"12287456",2023-04-11 16:06:32.000
RLS:500-0508203:OWN:EML:12287456,RLS:500-0508203:OWN:EML,RLS:500-0508203:OWN,LTH,EML,xxLLxXIx@email.com,,,,RLS,I,"12287456",2023-04-11 16:06:32.000
RLS:500-0623008:OWN:EML:12287456,RLS:500-0623008:OWN:EML,RLS:500-0623008:OWN,LTH,EML,"0010081031xOXG@email.com",,,,RLS,I,"12287456",2023-04-11 16:06:32.000
RLS:500-0623060:OWN:EML:12287456,RLS:500-0623060:OWN:EML,RLS:500-0623060:OWN,LTH,EML,"8.kxxxgxxdeX@email.com",,,,RLS,I,"12287456",2023-04-11 16:06:32.000
RLS:500-0650380:OWN:EML:12287456,RLS:500-0650380:OWN:EML,RLS:500-0650380:OWN,LTH,EML,XXEEJUXGxO@email.com,,,,RLS,I,"12287456",2023-04-11 16:06:32.000
RLS:500-0660000:OWN:EML:12287456,RLS:500-0660000:OWN:EML,RLS:500-0660000:OWN,LTH,EML,"00030383x00I00@email.com",,,,RLS,I,"12287456",2023-04-11 16:06:32.000
RLS:500-0660683:OWN:EML:12287456,RLS:500-0660683:OWN:EML,RLS:500-0660683:OWN,LTH,EML,ChxxxXxX@email.com,,,,RLS,I,"12287456",2023-04-11 16:06:32.000
RLS:500-0666000:OWN:EML:12287456,RLS:500-0666000:OWN:EML,RLS:500-0666000:OWN,LTH,EML,xULxDx.BxXX@email.com,,,,RLS,I,"12287456",2023-04-11 16:06:32.000
RLS:500-0800000:OWN:EML:12287456,RLS:500-0800000:OWN:EML,RLS:500-0800000:OWN,LTH,EML,"000200@egxx.co.xh",,,,RLS,I,"12287456",2023-04-11 16:06:32.000
RLS:500-0800805:OWN:EML:12287456,RLS:500-0800805:OWN:EML,RLS:500-0800805:OWN,LTH,EML,xkXlhxX@103.com,,,,RLS,I,"12287456",2023-04-11 16:06:32.000
RLS:500-2000000:OWN:EML:12287456,RLS:500-2000000:OWN:EML,RLS:500-2000000:OWN,LTH,EML,"0002038030.xx@email.com",,,,RLS,I,"12287456",2023-04-11 16:06:32.000
RLS:500-2026868:OWN:EML:12287456,RLS:500-2026868:OWN:EML,RLS:500-2026868:OWN,LTH,EML,"001088@EGxx.CO.xH",,,,RLS,I,"12287456",2023-04-11 16:06:32.000
RLS:500-2030605:OWN:EML:12287456,RLS:500-2030605:OWN:EML,RLS:500-2030605:OWN,LTH,EML,"0xoxXxixoX0@email.com",,,,RLS,I,"12287456",2023-04-11 16:06:32.000
RLS:500-2035002:OWN:EML:12287456,RLS:500-2035002:OWN:EML,RLS:500-2035002:OWN,LTH,EML,"0001010008O@email.com",,,,RLS,I,"12287456",2023-04-11 16:06:32.000
RLS:500-2060035:OWN:EML:12287456,RLS:500-2060035:OWN:EML,RLS:500-2060035:OWN,LTH,EML,"00xecomdchxXel@email.com",,,,RLS,I,"12287456",2023-04-11 16:06:32.000
RLS:500-2066625:OWN:EML:12287456,RLS:500-2066625:OWN:EML,RLS:500-2066625:OWN,LTH,EML,"0308CHxxIF@email.com",,,,RLS,I,"12287456",2023-04-11 16:06:32.000
RLS:500-2230638:OWN:EML:12287456,RLS:500-2230638:OWN:EML,RLS:500-2230638:OWN,LTH,EML,xhxXchxXok.XXxi@kxxxx.com,,,,RLS,I,"12287456",2023-04-11 16:06:32.000
RLS:500-2253020:OWN:EML:12287456,RLS:500-2253020:OWN:EML,RLS:500-2253020:OWN,LTH,EML,KUXXOxWOxx1001@email.com,,,,RLS,I,"12287456",2023-04-11 16:06:32.000
RLS:500-2300080:OWN:EML:12287456,RLS:500-2300080:OWN:EML,RLS:500-2300080:OWN,LTH,EML,wxxxxxXxxoxXchxi@email.com,,,,RLS,I,"12287456",2023-04-11 16:06:32.000
RLS:500-3003852:OWN:EML:12287456,RLS:500-3003852:OWN:EML,RLS:500-3003852:OWN,LTH,EML,"0xxxXXx32@email.com",,,,RLS,I,"12287456",2023-04-11 16:06:32.000
RLS:500-3080520:OWN:EML:12287456,RLS:500-3080520:OWN:EML,RLS:500-3080520:OWN,LTH,EML,"888ooXlx@email.com",,,,RLS,I,"12287456",2023-04-11 16:06:32.000
RLS:500-3200000:OWN:EML:12287456,RLS:500-3200000:OWN:EML,RLS:500-3200000:OWN,LTH,EML,"000000@egxx.co.xh",,,,RLS,I,"12287456",2023-04-11 16:06:32.000
RLS:500-3200003:OWN:EML:12287456,RLS:500-3200003:OWN:EML,RLS:500-3200003:OWN,LTH,EML,xxoducexox@email.com,,,,RLS,I,"12287456",2023-04-11 16:06:32.000
RLS:500-3200085:OWN:EML:12287456,RLS:500-3200085:OWN:EML,RLS:500-3200085:OWN,LTH,EML,delxxxixxXxuuxeX@email.com,,,,RLS,I,"12287456",2023-04-11 16:06:32.000
RLS:500-3203800:OWN:EML:12287456,RLS:500-3203800:OWN:EML,RLS:500-3203800:OWN,LTH,EML,"0100821@email.com",,,,RLS,I,"12287456",2023-04-11 16:06:32.000
RLS:500-3208002:OWN:EML:12287456,RLS:500-3208002:OWN:EML,RLS:500-3208002:OWN,LTH,EML,"00xxxXXExx0000@email.com",,,,RLS,I,"12287456",2023-04-11 16:06:32.000
RLS:500-3262200:OWN:EML:12287456,RLS:500-3262200:OWN:EML,RLS:500-3262200:OWN,LTH,EML,"000xIxxx@email.com",,,,RLS,I,"12287456",2023-04-11 16:06:32.000
RLS:500-3280658:OWN:EML:12287456,RLS:500-3280658:OWN:EML,RLS:500-3280658:OWN,LTH,EML,"000XiXekiXgkoXg80@email.com",,,,RLS,I,"12287456",2023-04-11 16:06:32.000
RLS:500-3280682:OWN:EML:12287456,RLS:500-3280682:OWN:EML,RLS:500-3280682:OWN,LTH,EML,"0280XXixikxXxxoXg@email.com",,,,RLS,I,"12287456",2023-04-11 16:06:32.000
RLS:500-3300226:OWN:EML:12287456,RLS:500-3300226:OWN:EML,RLS:500-3300226:OWN,LTH,EML,"031kxixXgkxi@email.com",,,,RLS,I,"12287456",2023-04-11 16:06:32.000
RLS:500-3305080:OWN:EML:12287456,RLS:500-3305080:OWN:EML,RLS:500-3305080:OWN,LTH,EML,XXb_comxoX_x@email.com,,,,RLS,I,"12287456",2023-04-11 16:06:32.000
RLS:500-3305803:OWN:EML:12287456,RLS:500-3305803:OWN:EML,RLS:500-3305803:OWN,LTH,EML,xEXUXXXXxxIX.x@DxXXIXxExGxOUx.com,,,,RLS,I,"12287456",2023-04-11 16:06:32.000
RLS:500-3380258:OWN:EML:12287456,RLS:500-3380258:OWN:EML,RLS:500-3380258:OWN,LTH,EML,"00.lixxle.buXXx@email.com",,,,RLS,I,"12287456",2023-04-11 16:06:32.000
RLS:500-3386200:OWN:EML:12287456,RLS:500-3386200:OWN:EML,RLS:500-3386200:OWN,LTH,EML,"003xxxhxdx@email.com",,,,RLS,I,"12287456",2023-04-11 16:06:32.000
RLS:500-6050000:OWN:EML:12287456,RLS:500-6050000:OWN:EML,RLS:500-6050000:OWN,LTH,EML,"0331101000@xxxichxx.XXkxu.xc.xh",,,,RLS,I,"12287456",2023-04-11 16:06:32.000
RLS:500-8205060:OWN:EML:12287456,RLS:500-8205060:OWN:EML,RLS:500-8205060:OWN,LTH,EML,JEExxxx000@email.com,,,,RLS,I,"12287456",2023-04-11 16:06:32.000
RLS:500-8205828:OWN:EML:12287456,RLS:500-8205828:OWN:EML,RLS:500-8205828:OWN,LTH,EML,KuXlxk13300@email.com,,,,RLS,I,"12287456",2023-04-11 16:06:32.000
RLS:500-8300030:OWN:EML:12287456,RLS:500-8300030:OWN:EML,RLS:500-8300030:OWN,LTH,EML,"000xxXxxxxx@email.com",,,,RLS,I,"12287456",2023-04-11 16:06:32.000
RLS:500-8300035:OWN:EML:12287456,RLS:500-8300035:OWN:EML,RLS:500-8300035:OWN,LTH,EML,KwxX1303@email.com,,,,RLS,I,"12287456",2023-04-11 16:06:32.000
RLS:500-0000028:INS:EML:12287456,RLS:500-0000028:INS:EML,RLS:500-0000028:INS,LTH,EML,"080101000102@dxx.xc.xh",,,,RLS,I,"12287456",2023-04-11 16:06:32.000
RLS:500-0008000:INS:EML:12287456,RLS:500-0008000:INS:EML,RLS:500-0008000:INS,LTH,EML,"0002088@email.com",,,,RLS,I,"12287456",2023-04-11 16:06:32.000
RLS:500-0008003:INS:EML:12287456,RLS:500-0008003:INS:EML,RLS:500-0008003:INS,LTH,EML,fixxXkx@xxil.xu,,,,RLS,I,"12287456",2023-04-11 16:06:32.000
RLS:500-0008803:INS:EML:12287456,RLS:500-0008803:INS:EML,RLS:500-0008803:INS,LTH,EML,"0001082800@email.com",,,,RLS,I,"12287456",2023-04-11 16:06:32.000
RLS:500-0008820:INS:EML:12287456,RLS:500-0008820:INS:EML,RLS:500-0008820:INS,LTH,EML,XoixXdXxxo@email.com,,,,RLS,I,"12287456",2023-04-11 16:06:32.000
RLS:500-0052003:INS:EML:12287456,RLS:500-0052003:INS:EML,RLS:500-0052003:INS,LTH,EML,"00KIxxIXX@email.com",,,,RLS,I,"12287456",2023-04-11 16:06:32.000
RLS:500-0080886:INS:EML:12287456,RLS:500-0080886:INS:EML,RLS:500-0080886:INS,LTH,EML,"002303@egxx.co.xh",,,,RLS,I,"12287456",2023-04-11 16:06:32.000
RLS:500-0085660:INS:EML:12287456,RLS:500-0085660:INS:EML,RLS:500-0085660:INS,LTH,EML,"0030xExLxE@email.com",,,,RLS,I,"12287456",2023-04-11 16:06:32.000
RLS:500-0200020:INS:EML:12287456,RLS:500-0200020:INS:EML,RLS:500-0200020:INS,LTH,EML,"00230020@xxxICHxx.XXKxU.CO.xH",,,,RLS,I,"12287456",2023-04-11 16:06:32.000
RLS:500-0300202:INS:EML:12287456,RLS:500-0300202:INS:EML,RLS:500-0300202:INS,LTH,EML,"000_20@email.com",,,,RLS,I,"12287456",2023-04-11 16:06:32.000
RLS:500-0300860:INS:EML:12287456,RLS:500-0300860:INS:EML,RLS:500-0300860:INS,LTH,EML,"0010200010xx@email.com",,,,RLS,I,"12287456",2023-04-11 16:06:32.000
RLS:500-0500002:INS:EML:12287456,RLS:500-0500002:INS:EML,RLS:500-0500002:INS,LTH,EML,BOOXIE_XXI@email.com,,,,RLS,I,"12287456",2023-04-11 16:06:32.000
RLS:500-0500550:INS:EML:12287456,RLS:500-0500550:INS:EML,RLS:500-0500550:INS,LTH,EML,"0003002000xeXuXX@email.com",,,,RLS,I,"12287456",2023-04-11 16:06:32.000
RLS:500-0500852:INS:EML:12287456,RLS:500-0500852:INS:EML,RLS:500-0500852:INS,LTH,EML,xox.xuxxx00@email.com,,,,RLS,I,"12287456",2023-04-11 16:06:32.000
RLS:500-0623060:INS:EML:12287456,RLS:500-0623060:INS:EML,RLS:500-0623060:INS,LTH,EML,"8.kxxxgxxdeX@email.com",,,,RLS,I,"12287456",2023-04-11 16:06:32.000
RLS:500-0650380:INS:EML:12287456,RLS:500-0650380:INS:EML,RLS:500-0650380:INS,LTH,EML,XXEEJUXGxO@email.com,,,,RLS,I,"12287456",2023-04-11 16:06:32.000
RLS:500-0666000:INS:EML:12287456,RLS:500-0666000:INS:EML,RLS:500-0666000:INS,LTH,EML,xULxDx.BxXX@email.com,,,,RLS,I,"12287456",2023-04-11 16:06:32.000
RLS:500-2000000:INS:EML:12287456,RLS:500-2000000:INS:EML,RLS:500-2000000:INS,LTH,EML,"0002038030.xx@email.com",,,,RLS,I,"12287456",2023-04-11 16:06:32.000
RLS:500-2030605:INS:EML:12287456,RLS:500-2030605:INS:EML,RLS:500-2030605:INS,LTH,EML,"0xoxXxixoX0@email.com",,,,RLS,I,"12287456",2023-04-11 16:06:32.000
RLS:500-2035002:INS:EML:12287456,RLS:500-2035002:INS:EML,RLS:500-2035002:INS,LTH,EML,"0001010008O@email.com",,,,RLS,I,"12287456",2023-04-11 16:06:32.000
RLS:500-2060035:INS:EML:12287456,RLS:500-2060035:INS:EML,RLS:500-2060035:INS,LTH,EML,"00xecomdchxXel@email.com",,,,RLS,I,"12287456",2023-04-11 16:06:32.000
RLS:500-2066625:INS:EML:12287456,RLS:500-2066625:INS:EML,RLS:500-2066625:INS,LTH,EML,"0308CHxxIF@email.com",,,,RLS,I,"12287456",2023-04-11 16:06:32.000
RLS:500-2230638:INS:EML:12287456,RLS:500-2230638:INS:EML,RLS:500-2230638:INS,LTH,EML,xhxXchxXok.XXxi@kxxxx.com,,,,RLS,I,"12287456",2023-04-11 16:06:32.000
RLS:500-2253020:INS:EML:12287456,RLS:500-2253020:INS:EML,RLS:500-2253020:INS,LTH,EML,KUXXOxWOxx1001@email.com,,,,RLS,I,"12287456",2023-04-11 16:06:32.000
RLS:500-2300080:INS:EML:12287456,RLS:500-2300080:INS:EML,RLS:500-2300080:INS,LTH,EML,wxxxxxXxxoxXchxi@email.com,,,,RLS,I,"12287456",2023-04-11 16:06:32.000
RLS:500-3003852:INS:EML:12287456,RLS:500-3003852:INS:EML,RLS:500-3003852:INS,LTH,EML,"0xxxXXx32@email.com",,,,RLS,I,"12287456",2023-04-11 16:06:32.000
RLS:500-3080520:INS:EML:12287456,RLS:500-3080520:INS:EML,RLS:500-3080520:INS,LTH,EML,"888ooXlx@email.com",,,,RLS,I,"12287456",2023-04-11 16:06:32.000
RLS:500-3200000:INS:EML:12287456,RLS:500-3200000:INS:EML,RLS:500-3200000:INS,LTH,EML,"000000@egxx.co.xh",,,,RLS,I,"12287456",2023-04-11 16:06:32.000
RLS:500-3200003:INS:EML:12287456,RLS:500-3200003:INS:EML,RLS:500-3200003:INS,LTH,EML,xxoducexox@email.com,,,,RLS,I,"12287456",2023-04-11 16:06:32.000
RLS:500-3200085:INS:EML:12287456,RLS:500-3200085:INS:EML,RLS:500-3200085:INS,LTH,EML,delxxxixxXxuuxeX@email.com,,,,RLS,I,"12287456",2023-04-11 16:06:32.000
RLS:500-3203800:INS:EML:12287456,RLS:500-3203800:INS:EML,RLS:500-3203800:INS,LTH,EML,"0100821@email.com",,,,RLS,I,"12287456",2023-04-11 16:06:32.000
RLS:500-3262200:INS:EML:12287456,RLS:500-3262200:INS:EML,RLS:500-3262200:INS,LTH,EML,"000xIxxx@email.com",,,,RLS,I,"12287456",2023-04-11 16:06:32.000
RLS:500-3280658:INS:EML:12287456,RLS:500-3280658:INS:EML,RLS:500-3280658:INS,LTH,EML,"000XiXekiXgkoXg80@email.com",,,,RLS,I,"12287456",2023-04-11 16:06:32.000
RLS:500-3280682:INS:EML:12287456,RLS:500-3280682:INS:EML,RLS:500-3280682:INS,LTH,EML,"0280XXixikxXxxoXg@email.com",,,,RLS,I,"12287456",2023-04-11 16:06:32.000
RLS:500-3305080:INS:EML:12287456,RLS:500-3305080:INS:EML,RLS:500-3305080:INS,LTH,EML,XXb_comxoX_x@email.com,,,,RLS,I,"12287456",2023-04-11 16:06:32.000
RLS:500-3305803:INS:EML:12287456,RLS:500-3305803:INS:EML,RLS:500-3305803:INS,LTH,EML,xEXUXXXXxxIX.x@DxXXIXxExGxOUx.com,,,,RLS,I,"12287456",2023-04-11 16:06:32.000
RLS:500-3386200:INS:EML:12287456,RLS:500-3386200:INS:EML,RLS:500-3386200:INS,LTH,EML,"003xxxhxdx@email.com",,,,RLS,I,"12287456",2023-04-11 16:06:32.000
RLS:500-6050000:INS:EML:12287456,RLS:500-6050000:INS:EML,RLS:500-6050000:INS,LTH,EML,"0331101000@xxxichxx.XXkxu.xc.xh",,,,RLS,I,"12287456",2023-04-11 16:06:32.000
RLS:500-0623060:INS:EML:42200115,RLS:500-0623060:INS:EML,RLS:500-0623060:INS,LTH,EML,"8.kxxxgxxdeX@gmail.com",,,,RLS,U,"42200115",2023-04-22 17:31:01.000
RLS:500-0650380:INS:EML:42200115,RLS:500-0650380:INS:EML,RLS:500-0650380:INS,LTH,EML,XXEEJUXGxO@gmail.com,,,,RLS,U,"42200115",2023-04-22 17:31:01.000
RLS:500-0666000:INS:EML:42200115,RLS:500-0666000:INS:EML,RLS:500-0666000:INS,LTH,EML,xULxDx.BxXX@gmail.com,,,,RLS,U,"42200115",2023-04-22 17:31:01.000
RLS:500-0660000:OWN:EML:42200115,RLS:500-0660000:OWN:EML,RLS:500-0660000:OWN,LTH,EML,"00030383x00I00@gmail.com",,,,RLS,U,"42200115",2023-04-22 17:31:01.000
RLS:500-0660683:OWN:EML:42200115,RLS:500-0660683:OWN:EML,RLS:500-0660683:OWN,LTH,EML,ChxxxXxX@gmail.com,,,,RLS,U,"42200115",2023-04-22 17:31:01.000
RLS:500-0666000:OWN:EML:42200115,RLS:500-0666000:OWN:EML,RLS:500-0666000:OWN,LTH,EML,xULxDx.BxXX@gmail.com,,,,RLS,U,"42200115",2023-04-22 17:31:01.000
RLS:500-2066625:OWN:EML:42200115,RLS:500-2066625:OWN:EML,RLS:500-2066625:OWN,LTH,EML,"0308CHxxIF@gmail.com",,,,RLS,U,"42200115",2023-04-22 17:31:01.000
RLS:500-2066625:INS:EML:42200115,RLS:500-2066625:INS:EML,RLS:500-2066625:INS,LTH,EML,"0308CHxxIF@gmail.com",,,,RLS,U,"42200115",2023-04-22 17:31:01.000
RLS:500-0508203:OWN:EML:42200115,RLS:500-0508203:OWN:EML,RLS:500-0508203:OWN,LTH,EML,xxLLxXIx@gmail.com,,,,RLS,U,"42200115",2023-04-22 17:31:01.000
RLS:500-2253020:INS:EML:42200115,RLS:500-2253020:INS:EML,RLS:500-2253020:INS,LTH,EML,KUXXOxWOxx1001@gmail.com,,,,RLS,U,"42200115",2023-04-22 17:31:01.000
RLS:500-2300080:INS:EML:42200115,RLS:500-2300080:INS:EML,RLS:500-2300080:INS,LTH,EML,wxxxxxXxxoxXchxi@gmail.com,,,,RLS,U,"42200115",2023-04-22 17:31:01.000
RLS:500-3003852:INS:EML:42200115,RLS:500-3003852:INS:EML,RLS:500-3003852:INS,LTH,EML,"0xxxXXx32@gmail.com",,,,RLS,U,"42200115",2023-04-22 17:31:01.000
RLS:500-2253020:OWN:EML:42200115,RLS:500-2253020:OWN:EML,RLS:500-2253020:OWN,LTH,EML,KUXXOxWOxx1001@gmail.com,,,,RLS,U,"42200115",2023-04-22 17:31:01.000
RLS:500-3300226:OWN:EML:42200115,RLS:500-3300226:OWN:EML,RLS:500-3300226:OWN,LTH,EML,"031kxixXgkxi@gmail.com",,,,RLS,U,"42200115",2023-04-22 17:31:01.000
RLS:500-3305080:OWN:EML:42200115,RLS:500-3305080:OWN:EML,RLS:500-3305080:OWN,LTH,EML,XXb_comxoX_x@gmail.com,,,,RLS,U,"42200115",2023-04-22 17:31:01.000
RLS:500-2300080:OWN:EML:42200115,RLS:500-2300080:OWN:EML,RLS:500-2300080:OWN,LTH,EML,wxxxxxXxxoxXchxi@gmail.com,,,,RLS,U,"42200115",2023-04-22 17:31:01.000
RLS:500-3380258:OWN:EML:42200115,RLS:500-3380258:OWN:EML,RLS:500-3380258:OWN,LTH,EML,"00.lixxle.buXXx@gmail.com",,,,RLS,U,"42200115",2023-04-22 17:31:01.000
RLS:500-3386200:OWN:EML:42200115,RLS:500-3386200:OWN:EML,RLS:500-3386200:OWN,LTH,EML,"003xxxhxdx@gmail.com",,,,RLS,U,"42200115",2023-04-22 17:31:01.000
RLS:500-3003852:OWN:EML:42200115,RLS:500-3003852:OWN:EML,RLS:500-3003852:OWN,LTH,EML,"0xxxXXx32@gmail.com",,,,RLS,U,"42200115",2023-04-22 17:31:01.000
RLS:500-0623008:OWN:EML:42200115,RLS:500-0623008:OWN:EML,RLS:500-0623008:OWN,LTH,EML,"0010081031xOXG@gmail.com",,,,RLS,U,"42200115",2023-04-22 17:31:01.000
RLS:500-3305080:INS:EML:42200115,RLS:500-3305080:INS:EML,RLS:500-3305080:INS,LTH,EML,XXb_comxoX_x@gmail.com,,,,RLS,U,"42200115",2023-04-22 17:31:01.000
RLS:500-0623060:OWN:EML:42200115,RLS:500-0623060:OWN:EML,RLS:500-0623060:OWN,LTH,EML,"8.kxxxgxxdeX@gmail.com",,,,RLS,U,"42200115",2023-04-22 17:31:01.000
RLS:500-3386200:INS:EML:42200115,RLS:500-3386200:INS:EML,RLS:500-3386200:INS,LTH,EML,"003xxxhxdx@gmail.com",,,,RLS,U,"42200115",2023-04-22 17:31:01.000
RLS:500-0650380:OWN:EML:42200115,RLS:500-0650380:OWN:EML,RLS:500-0650380:OWN,LTH,EML,XXEEJUXGxO@gmail.com,,,,RLS,U,"42200115",2023-04-22 17:31:01.000
RLS:500-2000000:OWN:EML:20147533,RLS:500-2000000:OWN:EML,RLS:500-2000000:OWN,LTH,EML,"0002038030.xx@email.com",,,,RLS,I,"20147533",2023-04-19 08:46:02.000
RLS:500-2026868:OWN:EML:20147533,RLS:500-2026868:OWN:EML,RLS:500-2026868:OWN,LTH,EML,"001088@EGxx.CO.xH",,,,RLS,I,"20147533",2023-04-19 08:46:02.000
RLS:500-2030605:OWN:EML:20147533,RLS:500-2030605:OWN:EML,RLS:500-2030605:OWN,LTH,EML,"0xoxXxixoX0@email.com",,,,RLS,I,"20147533",2023-04-19 08:46:02.000
RLS:500-2035002:OWN:EML:20147533,RLS:500-2035002:OWN:EML,RLS:500-2035002:OWN,LTH,EML,"0001010008O@email.com",,,,RLS,I,"20147533",2023-04-19 08:46:02.000
RLS:500-2060035:OWN:EML:20147533,RLS:500-2060035:OWN:EML,RLS:500-2060035:OWN,LTH,EML,"00xecomdchxXel@email.com",,,,RLS,I,"20147533",2023-04-19 08:46:02.000
RLS:500-2230638:OWN:EML:20147533,RLS:500-2230638:OWN:EML,RLS:500-2230638:OWN,LTH,EML,xhxXchxXok.XXxi@kxxxx.com,,,,RLS,I,"20147533",2023-04-19 08:46:02.000
RLS:500-3080520:OWN:EML:20147533,RLS:500-3080520:OWN:EML,RLS:500-3080520:OWN,LTH,EML,"888ooXlx@email.com",,,,RLS,I,"20147533",2023-04-19 08:46:02.000
RLS:500-3200000:OWN:EML:20147533,RLS:500-3200000:OWN:EML,RLS:500-3200000:OWN,LTH,EML,"000000@egxx.co.xh",,,,RLS,I,"20147533",2023-04-19 08:46:02.000
RLS:500-3200003:OWN:EML:20147533,RLS:500-3200003:OWN:EML,RLS:500-3200003:OWN,LTH,EML,xxoducexox@email.com,,,,RLS,I,"20147533",2023-04-19 08:46:02.000
RLS:500-3200085:OWN:EML:20147533,RLS:500-3200085:OWN:EML,RLS:500-3200085:OWN,LTH,EML,delxxxixxXxuuxeX@email.com,,,,RLS,I,"20147533",2023-04-19 08:46:02.000
RLS:500-3203800:OWN:EML:20147533,RLS:500-3203800:OWN:EML,RLS:500-3203800:OWN,LTH,EML,"0100821@email.com",,,,RLS,I,"20147533",2023-04-19 08:46:02.000
RLS:500-3208002:OWN:EML:20147533,RLS:500-3208002:OWN:EML,RLS:500-3208002:OWN,LTH,EML,"00xxxXXExx0000@email.com",,,,RLS,I,"20147533",2023-04-19 08:46:02.000
RLS:500-3262200:OWN:EML:20147533,RLS:500-3262200:OWN:EML,RLS:500-3262200:OWN,LTH,EML,"000xIxxx@email.com",,,,RLS,I,"20147533",2023-04-19 08:46:02.000
RLS:500-3280658:OWN:EML:20147533,RLS:500-3280658:OWN:EML,RLS:500-3280658:OWN,LTH,EML,"000XiXekiXgkoXg80@email.com",,,,RLS,I,"20147533",2023-04-19 08:46:02.000
RLS:500-3280682:OWN:EML:20147533,RLS:500-3280682:OWN:EML,RLS:500-3280682:OWN,LTH,EML,"0280XXixikxXxxoXg@email.com",,,,RLS,I,"20147533",2023-04-19 08:46:02.000
RLS:500-3305803:OWN:EML:20147533,RLS:500-3305803:OWN:EML,RLS:500-3305803:OWN,LTH,EML,xEXUXXXXxxIX.x@DxXXIXxExGxOUx.com,,,,RLS,I,"20147533",2023-04-19 08:46:02.000
RLS:500-6050000:OWN:EML:20147533,RLS:500-6050000:OWN:EML,RLS:500-6050000:OWN,LTH,EML,"0331101000@xxxichxx.XXkxu.xc.xh",,,,RLS,I,"20147533",2023-04-19 08:46:02.000
RLS:500-8205060:OWN:EML:20147533,RLS:500-8205060:OWN:EML,RLS:500-8205060:OWN,LTH,EML,JEExxxx000@email.com,,,,RLS,I,"20147533",2023-04-19 08:46:02.000
RLS:500-8205828:OWN:EML:20147533,RLS:500-8205828:OWN:EML,RLS:500-8205828:OWN,LTH,EML,KuXlxk13300@email.com,,,,RLS,I,"20147533",2023-04-19 08:46:02.000
RLS:500-8300030:OWN:EML:20147533,RLS:500-8300030:OWN:EML,RLS:500-8300030:OWN,LTH,EML,"000xxXxxxxx@email.com",,,,RLS,I,"20147533",2023-04-19 08:46:02.000
RLS:500-8300035:OWN:EML:20147533,RLS:500-8300035:OWN:EML,RLS:500-8300035:OWN,LTH,EML,KwxX1303@email.com,,,,RLS,I,"20147533",2023-04-19 08:46:02.000
RLS:500-0000028:INS:EML:20147533,RLS:500-0000028:INS:EML,RLS:500-0000028:INS,LTH,EML,"080101000102@dxx.xc.xh",,,,RLS,I,"20147533",2023-04-19 08:46:02.000
RLS:500-0008000:INS:EML:20147533,RLS:500-0008000:INS:EML,RLS:500-0008000:INS,LTH,EML,"0002088@email.com",,,,RLS,I,"20147533",2023-04-19 08:46:02.000
RLS:500-0008003:INS:EML:20147533,RLS:500-0008003:INS:EML,RLS:500-0008003:INS,LTH,EML,fixxXkx@xxil.xu,,,,RLS,I,"20147533",2023-04-19 08:46:02.000
RLS:500-0008803:INS:EML:20147533,RLS:500-0008803:INS:EML,RLS:500-0008803:INS,LTH,EML,"0001082800@email.com",,,,RLS,I,"20147533",2023-04-19 08:46:02.000
RLS:500-0008820:INS:EML:20147533,RLS:500-0008820:INS:EML,RLS:500-0008820:INS,LTH,EML,XoixXdXxxo@email.com,,,,RLS,I,"20147533",2023-04-19 08:46:02.000
RLS:500-0052003:INS:EML:20147533,RLS:500-0052003:INS:EML,RLS:500-0052003:INS,LTH,EML,"00KIxxIXX@email.com",,,,RLS,I,"20147533",2023-04-19 08:46:02.000
RLS:500-0080886:INS:EML:20147533,RLS:500-0080886:INS:EML,RLS:500-0080886:INS,LTH,EML,"002303@egxx.co.xh",,,,RLS,I,"20147533",2023-04-19 08:46:02.000
RLS:500-0085660:INS:EML:20147533,RLS:500-0085660:INS:EML,RLS:500-0085660:INS,LTH,EML,"0030xExLxE@email.com",,,,RLS,I,"20147533",2023-04-19 08:46:02.000
RLS:500-0200020:INS:EML:20147533,RLS:500-0200020:INS:EML,RLS:500-0200020:INS,LTH,EML,"00230020@xxxICHxx.XXKxU.CO.xH",,,,RLS,I,"20147533",2023-04-19 08:46:02.000
RLS:500-0300202:INS:EML:20147533,RLS:500-0300202:INS:EML,RLS:500-0300202:INS,LTH,EML,"000_20@email.com",,,,RLS,I,"20147533",2023-04-19 08:46:02.000
RLS:500-0300860:INS:EML:20147533,RLS:500-0300860:INS:EML,RLS:500-0300860:INS,LTH,EML,"0010200010xx@email.com",,,,RLS,I,"20147533",2023-04-19 08:46:02.000
RLS:500-0500002:INS:EML:20147533,RLS:500-0500002:INS:EML,RLS:500-0500002:INS,LTH,EML,BOOXIE_XXI@email.com,,,,RLS,I,"20147533",2023-04-19 08:46:02.000
RLS:500-0500550:INS:EML:20147533,RLS:500-0500550:INS:EML,RLS:500-0500550:INS,LTH,EML,"0003002000xeXuXX@email.com",,,,RLS,I,"20147533",2023-04-19 08:46:02.000
RLS:500-0500852:INS:EML:20147533,RLS:500-0500852:INS:EML,RLS:500-0500852:INS,LTH,EML,xox.xuxxx00@email.com,,,,RLS,I,"20147533",2023-04-19 08:46:02.000
RLS:500-2000000:INS:EML:20147533,RLS:500-2000000:INS:EML,RLS:500-2000000:INS,LTH,EML,"0002038030.xx@email.com",,,,RLS,I,"20147533",2023-04-19 08:46:02.000
RLS:500-2030605:INS:EML:20147533,RLS:500-2030605:INS:EML,RLS:500-2030605:INS,LTH,EML,"0xoxXxixoX0@email.com",,,,RLS,I,"20147533",2023-04-19 08:46:02.000
RLS:500-2035002:INS:EML:20147533,RLS:500-2035002:INS:EML,RLS:500-2035002:INS,LTH,EML,"0001010008O@email.com",,,,RLS,I,"20147533",2023-04-19 08:46:02.000
RLS:500-2060035:INS:EML:20147533,RLS:500-2060035:INS:EML,RLS:500-2060035:INS,LTH,EML,"00xecomdchxXel@email.com",,,,RLS,I,"20147533",2023-04-19 08:46:02.000
RLS:500-2230638:INS:EML:20147533,RLS:500-2230638:INS:EML,RLS:500-2230638:INS,LTH,EML,xhxXchxXok.XXxi@kxxxx.com,,,,RLS,I,"20147533",2023-04-19 08:46:02.000
RLS:500-3080520:INS:EML:20147533,RLS:500-3080520:INS:EML,RLS:500-3080520:INS,LTH,EML,"888ooXlx@email.com",,,,RLS,I,"20147533",2023-04-19 08:46:02.000
RLS:500-3200000:INS:EML:20147533,RLS:500-3200000:INS:EML,RLS:500-3200000:INS,LTH,EML,"000000@egxx.co.xh",,,,RLS,I,"20147533",2023-04-19 08:46:02.000
RLS:500-3200003:INS:EML:20147533,RLS:500-3200003:INS:EML,RLS:500-3200003:INS,LTH,EML,xxoducexox@email.com,,,,RLS,I,"20147533",2023-04-19 08:46:02.000
RLS:500-3200085:INS:EML:20147533,RLS:500-3200085:INS:EML,RLS:500-3200085:INS,LTH,EML,delxxxixxXxuuxeX@email.com,,,,RLS,I,"20147533",2023-04-19 08:46:02.000
RLS:500-3203800:INS:EML:20147533,RLS:500-3203800:INS:EML,RLS:500-3203800:INS,LTH,EML,"0100821@email.com",,,,RLS,I,"20147533",2023-04-19 08:46:02.000
RLS:500-3262200:INS:EML:20147533,RLS:500-3262200:INS:EML,RLS:500-3262200:INS,LTH,EML,"000xIxxx@email.com",,,,RLS,I,"20147533",2023-04-19 08:46:02.000
RLS:500-3280658:INS:EML:20147533,RLS:500-3280658:INS:EML,RLS:500-3280658:INS,LTH,EML,"000XiXekiXgkoXg80@email.com",,,,RLS,I,"20147533",2023-04-19 08:46:02.000
RLS:500-3280682:INS:EML:20147533,RLS:500-3280682:INS:EML,RLS:500-3280682:INS,LTH,EML,"0280XXixikxXxxoXg@email.com",,,,RLS,I,"20147533",2023-04-19 08:46:02.000
RLS:500-3305803:INS:EML:20147533,RLS:500-3305803:INS:EML,RLS:500-3305803:INS,LTH,EML,xEXUXXXXxxIX.x@DxXXIXxExGxOUx.com,,,,RLS,I,"20147533",2023-04-19 08:46:02.000
RLS:500-0000028:OWN:EML:20147533,RLS:500-0000028:OWN:EML,RLS:500-0000028:OWN,LTH,EML,"080101000102@dxx.xc.xh",,,,RLS,I,"20147533",2023-04-19 08:46:02.000
RLS:500-6050000:INS:EML:20147533,RLS:500-6050000:INS:EML,RLS:500-6050000:INS,LTH,EML,"0331101000@xxxichxx.XXkxu.xc.xh",,,,RLS,I,"20147533",2023-04-19 08:46:02.000
RLS:500-0008000:OWN:EML:20147533,RLS:500-0008000:OWN:EML,RLS:500-0008000:OWN,LTH,EML,"0002088@email.com",,,,RLS,I,"20147533",2023-04-19 08:46:02.000
RLS:500-0008003:OWN:EML:20147533,RLS:500-0008003:OWN:EML,RLS:500-0008003:OWN,LTH,EML,fixxXkx@xxil.xu,,,,RLS,I,"20147533",2023-04-19 08:46:02.000
RLS:500-0008803:OWN:EML:20147533,RLS:500-0008803:OWN:EML,RLS:500-0008803:OWN,LTH,EML,"0001082800@email.com",,,,RLS,I,"20147533",2023-04-19 08:46:02.000
RLS:500-0008820:OWN:EML:20147533,RLS:500-0008820:OWN:EML,RLS:500-0008820:OWN,LTH,EML,XoixXdXxxo@email.com,,,,RLS,I,"20147533",2023-04-19 08:46:02.000
RLS:500-0050000:OWN:EML:20147533,RLS:500-0050000:OWN:EML,RLS:500-0050000:OWN,LTH,EML,"00010211182@xXXu.xc.xh",,,,RLS,I,"20147533",2023-04-19 08:46:02.000
RLS:500-0050033:OWN:EML:20147533,RLS:500-0050033:OWN:EML,RLS:500-0050033:OWN,LTH,EML,"0juXe02000@email.com",,,,RLS,I,"20147533",2023-04-19 08:46:02.000
RLS:500-0052003:OWN:EML:20147533,RLS:500-0052003:OWN:EML,RLS:500-0052003:OWN,LTH,EML,"00KIxxIXX@email.com",,,,RLS,I,"20147533",2023-04-19 08:46:02.000
RLS:500-0055030:OWN:EML:20147533,RLS:500-0055030:OWN:EML,RLS:500-0055030:OWN,LTH,EML,"0031200080xiXg@email.com",,,,RLS,I,"20147533",2023-04-19 08:46:02.000
RLS:500-0055305:OWN:EML:20147533,RLS:500-0055305:OWN:EML,RLS:500-0055305:OWN,LTH,EML,WWGxxCE00@email.com,,,,RLS,I,"20147533",2023-04-19 08:46:02.000
RLS:500-0055520:OWN:EML:20147533,RLS:500-0055520:OWN:EML,RLS:500-0055520:OWN,LTH,EML,"0020021000@xbxu.xc.xh",,,,RLS,I,"20147533",2023-04-19 08:46:02.000
RLS:500-0080550:OWN:EML:20147533,RLS:500-0080550:OWN:EML,RLS:500-0080550:OWN,LTH,EML,"002083000x@email.com",,,,RLS,I,"20147533",2023-04-19 08:46:02.000
RLS:500-0080886:OWN:EML:20147533,RLS:500-0080886:OWN:EML,RLS:500-0080886:OWN,LTH,EML,"002303@egxx.co.xh",,,,RLS,I,"20147533",2023-04-19 08:46:02.000
RLS:500-0085660:OWN:EML:20147533,RLS:500-0085660:OWN:EML,RLS:500-0085660:OWN,LTH,EML,"0030xExLxE@email.com",,,,RLS,I,"20147533",2023-04-19 08:46:02.000
RLS:500-0200020:OWN:EML:20147533,RLS:500-0200020:OWN:EML,RLS:500-0200020:OWN,LTH,EML,"00230020@xxxICHxx.XXKxU.CO.xH",,,,RLS,I,"20147533",2023-04-19 08:46:02.000
RLS:500-0255000:OWN:EML:20147533,RLS:500-0255000:OWN:EML,RLS:500-0255000:OWN,LTH,EML,KuxiXXxxx@kxxxx.com,,,,RLS,I,"20147533",2023-04-19 08:46:02.000
RLS:500-0300202:OWN:EML:20147533,RLS:500-0300202:OWN:EML,RLS:500-0300202:OWN,LTH,EML,"000_20@email.com",,,,RLS,I,"20147533",2023-04-19 08:46:02.000
RLS:500-0300305:OWN:EML:20147533,RLS:500-0300305:OWN:EML,RLS:500-0300305:OWN,LTH,EML,"0303000000@xuxxil.xu.xc.xh",,,,RLS,I,"20147533",2023-04-19 08:46:02.000
RLS:500-0300860:OWN:EML:20147533,RLS:500-0300860:OWN:EML,RLS:500-0300860:OWN,LTH,EML,"0010200010xx@email.com",,,,RLS,I,"20147533",2023-04-19 08:46:02.000
RLS:500-0500002:OWN:EML:20147533,RLS:500-0500002:OWN:EML,RLS:500-0500002:OWN,LTH,EML,BOOXIE_XXI@email.com,,,,RLS,I,"20147533",2023-04-19 08:46:02.000
RLS:500-0500550:OWN:EML:20147533,RLS:500-0500550:OWN:EML,RLS:500-0500550:OWN,LTH,EML,"0003002000xeXuXX@email.com",,,,RLS,I,"20147533",2023-04-19 08:46:02.000
RLS:500-0500852:OWN:EML:20147533,RLS:500-0500852:OWN:EML,RLS:500-0500852:OWN,LTH,EML,xox.xuxxx00@email.com,,,,RLS,I,"20147533",2023-04-19 08:46:02.000
RLS:500-0800000:OWN:EML:20147533,RLS:500-0800000:OWN:EML,RLS:500-0800000:OWN,LTH,EML,"000200@egxx.co.xh",,,,RLS,I,"20147533",2023-04-19 08:46:02.000
RLS:500-0800805:OWN:EML:20147533,RLS:500-0800805:OWN:EML,RLS:500-0800805:OWN,LTH,EML,xkXlhxX@103.com,,,,RLS,I,"20147533",2023-04-19 08:46:02.000
