"UUID","PKEY_SRC","PARTY_PKEY_SRC","ADDR_PKEY_SRC","ENTITY_CD","PHYSICAL_ADDR_TYPE_CD","DEL_FLG","SOURCE_ROWID","SRC_ROWID","SRC_SYSTEM_CD","STD_PHYSICAL_ADDR_TYPE_CD","TRANSACTION_FLAG","BATCH_ID","LAST_UPDATE_DATE"
RLS:500-0666000:INS:C:PHY:20147533,RLS:500-0666000:INS:C:PHY,RLS:500-0666000:INS,RLS:500-0666000:INS:C:ADDR,LTH,C,"",,,RLS,C,I,"20147533",2023-04-19 08:46:02.000
RLS:500-0008000:OWN:C:PHY:20147533,RLS:500-0008000:OWN:C:PHY,RLS:500-0008000:OWN,RLS:500-0008000:OWN:C:ADDR,LTH,C,"",,,RLS,C,I,"20147533",2023-04-19 08:46:02.000
RLS:500-0008003:OWN:C:PHY:20147533,RLS:500-0008003:OWN:C:PHY,RLS:500-0008003:OWN,RLS:500-0008003:OWN:C:ADDR,LTH,C,"",,,RLS,C,I,"20147533",2023-04-19 08:46:02.000
RLS:500-0008803:OWN:C:PHY:20147533,RLS:500-0008803:OWN:C:PHY,RLS:500-0008803:OWN,RLS:500-0008803:OWN:C:ADDR,LTH,C,"",,,RLS,C,I,"20147533",2023-04-19 08:46:02.000
RLS:500-0008820:OWN:C:PHY:20147533,RLS:500-0008820:OWN:C:PHY,RLS:500-0008820:OWN,RLS:500-0008820:OWN:C:ADDR,LTH,C,"",,,RLS,C,I,"20147533",2023-04-19 08:46:02.000
RLS:500-0050000:OWN:C:PHY:20147533,RLS:500-0050000:OWN:C:PHY,RLS:500-0050000:OWN,RLS:500-0050000:OWN:C:ADDR,LTH,C,"",,,RLS,C,I,"20147533",2023-04-19 08:46:02.000
RLS:500-0050033:OWN:C:PHY:20147533,RLS:500-0050033:OWN:C:PHY,RLS:500-0050033:OWN,RLS:500-0050033:OWN:C:ADDR,LTH,C,"",,,RLS,C,I,"20147533",2023-04-19 08:46:02.000
RLS:500-0052003:OWN:C:PHY:20147533,RLS:500-0052003:OWN:C:PHY,RLS:500-0052003:OWN,RLS:500-0052003:OWN:C:ADDR,LTH,C,"",,,RLS,C,I,"20147533",2023-04-19 08:46:02.000
RLS:500-0055030:OWN:C:PHY:20147533,RLS:500-0055030:OWN:C:PHY,RLS:500-0055030:OWN,RLS:500-0055030:OWN:C:ADDR,LTH,C,"",,,RLS,C,I,"20147533",2023-04-19 08:46:02.000
RLS:500-0055305:OWN:C:PHY:20147533,RLS:500-0055305:OWN:C:PHY,RLS:500-0055305:OWN,RLS:500-0055305:OWN:C:ADDR,LTH,C,"",,,RLS,C,I,"20147533",2023-04-19 08:46:02.000
RLS:500-0055520:OWN:C:PHY:20147533,RLS:500-0055520:OWN:C:PHY,RLS:500-0055520:OWN,RLS:500-0055520:OWN:C:ADDR,LTH,C,"",,,RLS,C,I,"20147533",2023-04-19 08:46:02.000
RLS:500-0080550:OWN:C:PHY:20147533,RLS:500-0080550:OWN:C:PHY,RLS:500-0080550:OWN,RLS:500-0080550:OWN:C:ADDR,LTH,C,"",,,RLS,C,I,"20147533",2023-04-19 08:46:02.000
RLS:500-0080886:OWN:C:PHY:20147533,RLS:500-0080886:OWN:C:PHY,RLS:500-0080886:OWN,RLS:500-0080886:OWN:C:ADDR,LTH,C,"",,,RLS,C,I,"20147533",2023-04-19 08:46:02.000
RLS:500-0085660:OWN:C:PHY:20147533,RLS:500-0085660:OWN:C:PHY,RLS:500-0085660:OWN,RLS:500-0085660:OWN:C:ADDR,LTH,C,"",,,RLS,C,I,"20147533",2023-04-19 08:46:02.000
RLS:500-0200020:OWN:C:PHY:20147533,RLS:500-0200020:OWN:C:PHY,RLS:500-0200020:OWN,RLS:500-0200020:OWN:C:ADDR,LTH,C,"",,,RLS,C,I,"20147533",2023-04-19 08:46:02.000
RLS:500-0255000:OWN:C:PHY:20147533,RLS:500-0255000:OWN:C:PHY,RLS:500-0255000:OWN,RLS:500-0255000:OWN:C:ADDR,LTH,C,"",,,RLS,C,I,"20147533",2023-04-19 08:46:02.000
RLS:500-0300202:OWN:C:PHY:20147533,RLS:500-0300202:OWN:C:PHY,RLS:500-0300202:OWN,RLS:500-0300202:OWN:C:ADDR,LTH,C,"",,,RLS,C,I,"20147533",2023-04-19 08:46:02.000
RLS:500-0300305:OWN:C:PHY:20147533,RLS:500-0300305:OWN:C:PHY,RLS:500-0300305:OWN,RLS:500-0300305:OWN:C:ADDR,LTH,C,"",,,RLS,C,I,"20147533",2023-04-19 08:46:02.000
RLS:500-0300860:OWN:C:PHY:20147533,RLS:500-0300860:OWN:C:PHY,RLS:500-0300860:OWN,RLS:500-0300860:OWN:C:ADDR,LTH,C,"",,,RLS,C,I,"20147533",2023-04-19 08:46:02.000
RLS:500-0500002:OWN:C:PHY:20147533,RLS:500-0500002:OWN:C:PHY,RLS:500-0500002:OWN,RLS:500-0500002:OWN:C:ADDR,LTH,C,"",,,RLS,C,I,"20147533",2023-04-19 08:46:02.000
RLS:500-0500550:OWN:C:PHY:20147533,RLS:500-0500550:OWN:C:PHY,RLS:500-0500550:OWN,RLS:500-0500550:OWN:C:ADDR,LTH,C,"",,,RLS,C,I,"20147533",2023-04-19 08:46:02.000
RLS:500-0500852:OWN:C:PHY:20147533,RLS:500-0500852:OWN:C:PHY,RLS:500-0500852:OWN,RLS:500-0500852:OWN:C:ADDR,LTH,C,"",,,RLS,C,I,"20147533",2023-04-19 08:46:02.000
RLS:500-0623008:OWN:C:PHY:20147533,RLS:500-0623008:OWN:C:PHY,RLS:500-0623008:OWN,RLS:500-0623008:OWN:C:ADDR,LTH,C,"",,,RLS,C,I,"20147533",2023-04-19 08:46:02.000
RLS:500-0623060:OWN:C:PHY:20147533,RLS:500-0623060:OWN:C:PHY,RLS:500-0623060:OWN,RLS:500-0623060:OWN:C:ADDR,LTH,C,"",,,RLS,C,I,"20147533",2023-04-19 08:46:02.000
RLS:500-0650380:OWN:C:PHY:20147533,RLS:500-0650380:OWN:C:PHY,RLS:500-0650380:OWN,RLS:500-0650380:OWN:C:ADDR,LTH,C,"",,,RLS,C,I,"20147533",2023-04-19 08:46:02.000
RLS:500-0660000:OWN:C:PHY:20147533,RLS:500-0660000:OWN:C:PHY,RLS:500-0660000:OWN,RLS:500-0660000:OWN:C:ADDR,LTH,C,"",,,RLS,C,I,"20147533",2023-04-19 08:46:02.000
RLS:500-0660683:OWN:C:PHY:20147533,RLS:500-0660683:OWN:C:PHY,RLS:500-0660683:OWN,RLS:500-0660683:OWN:C:ADDR,LTH,C,"",,,RLS,C,I,"20147533",2023-04-19 08:46:02.000
RLS:500-0800000:OWN:C:PHY:20147533,RLS:500-0800000:OWN:C:PHY,RLS:500-0800000:OWN,RLS:500-0800000:OWN:C:ADDR,LTH,C,"",,,RLS,C,I,"20147533",2023-04-19 08:46:02.000
RLS:500-2000000:OWN:C:PHY:20147533,RLS:500-2000000:OWN:C:PHY,RLS:500-2000000:OWN,RLS:500-2000000:OWN:C:ADDR,LTH,C,"",,,RLS,C,I,"20147533",2023-04-19 08:46:02.000
RLS:500-2026868:OWN:C:PHY:20147533,RLS:500-2026868:OWN:C:PHY,RLS:500-2026868:OWN,RLS:500-2026868:OWN:C:ADDR,LTH,C,"",,,RLS,C,I,"20147533",2023-04-19 08:46:02.000
RLS:500-2030605:OWN:C:PHY:20147533,RLS:500-2030605:OWN:C:PHY,RLS:500-2030605:OWN,RLS:500-2030605:OWN:C:ADDR,LTH,C,"",,,RLS,C,I,"20147533",2023-04-19 08:46:02.000
RLS:500-8205828:OWN:C:PHY:20147533,RLS:500-8205828:OWN:C:PHY,RLS:500-8205828:OWN,RLS:500-8205828:OWN:C:ADDR,LTH,C,"",,,RLS,C,I,"20147533",2023-04-19 08:46:02.000
RLS:500-0800805:OWN:C:PHY:20147533,RLS:500-0800805:OWN:C:PHY,RLS:500-0800805:OWN,RLS:500-0800805:OWN:C:ADDR,LTH,C,"",,,RLS,C,I,"20147533",2023-04-19 08:46:02.000
RLS:500-2035002:OWN:C:PHY:20147533,RLS:500-2035002:OWN:C:PHY,RLS:500-2035002:OWN,RLS:500-2035002:OWN:C:ADDR,LTH,C,"",,,RLS,C,I,"20147533",2023-04-19 08:46:02.000
RLS:500-2060035:OWN:C:PHY:20147533,RLS:500-2060035:OWN:C:PHY,RLS:500-2060035:OWN,RLS:500-2060035:OWN:C:ADDR,LTH,C,"",,,RLS,C,I,"20147533",2023-04-19 08:46:02.000
RLS:500-2066625:OWN:C:PHY:20147533,RLS:500-2066625:OWN:C:PHY,RLS:500-2066625:OWN,RLS:500-2066625:OWN:C:ADDR,LTH,C,"",,,RLS,C,I,"20147533",2023-04-19 08:46:02.000
RLS:500-2230638:OWN:C:PHY:20147533,RLS:500-2230638:OWN:C:PHY,RLS:500-2230638:OWN,RLS:500-2230638:OWN:C:ADDR,LTH,C,"",,,RLS,C,I,"20147533",2023-04-19 08:46:02.000
RLS:500-2253020:OWN:C:PHY:20147533,RLS:500-2253020:OWN:C:PHY,RLS:500-2253020:OWN,RLS:500-2253020:OWN:C:ADDR,LTH,C,"",,,RLS,C,I,"20147533",2023-04-19 08:46:02.000
RLS:500-2300080:OWN:C:PHY:20147533,RLS:500-2300080:OWN:C:PHY,RLS:500-2300080:OWN,RLS:500-2300080:OWN:C:ADDR,LTH,C,"",,,RLS,C,I,"20147533",2023-04-19 08:46:02.000
RLS:500-3003852:OWN:C:PHY:20147533,RLS:500-3003852:OWN:C:PHY,RLS:500-3003852:OWN,RLS:500-3003852:OWN:C:ADDR,LTH,C,"",,,RLS,C,I,"20147533",2023-04-19 08:46:02.000
RLS:500-3080520:OWN:C:PHY:20147533,RLS:500-3080520:OWN:C:PHY,RLS:500-3080520:OWN,RLS:500-3080520:OWN:C:ADDR,LTH,C,"",,,RLS,C,I,"20147533",2023-04-19 08:46:02.000
RLS:500-3200000:OWN:C:PHY:20147533,RLS:500-3200000:OWN:C:PHY,RLS:500-3200000:OWN,RLS:500-3200000:OWN:C:ADDR,LTH,C,"",,,RLS,C,I,"20147533",2023-04-19 08:46:02.000
RLS:500-3200003:OWN:C:PHY:20147533,RLS:500-3200003:OWN:C:PHY,RLS:500-3200003:OWN,RLS:500-3200003:OWN:C:ADDR,LTH,C,"",,,RLS,C,I,"20147533",2023-04-19 08:46:02.000
RLS:500-3200085:OWN:C:PHY:20147533,RLS:500-3200085:OWN:C:PHY,RLS:500-3200085:OWN,RLS:500-3200085:OWN:C:ADDR,LTH,C,"",,,RLS,C,I,"20147533",2023-04-19 08:46:02.000
RLS:500-3203800:OWN:C:PHY:20147533,RLS:500-3203800:OWN:C:PHY,RLS:500-3203800:OWN,RLS:500-3203800:OWN:C:ADDR,LTH,C,"",,,RLS,C,I,"20147533",2023-04-19 08:46:02.000
RLS:500-3208002:OWN:C:PHY:20147533,RLS:500-3208002:OWN:C:PHY,RLS:500-3208002:OWN,RLS:500-3208002:OWN:C:ADDR,LTH,C,"",,,RLS,C,I,"20147533",2023-04-19 08:46:02.000
RLS:500-3262200:OWN:C:PHY:20147533,RLS:500-3262200:OWN:C:PHY,RLS:500-3262200:OWN,RLS:500-3262200:OWN:C:ADDR,LTH,C,"",,,RLS,C,I,"20147533",2023-04-19 08:46:02.000
RLS:500-3280658:OWN:C:PHY:20147533,RLS:500-3280658:OWN:C:PHY,RLS:500-3280658:OWN,RLS:500-3280658:OWN:C:ADDR,LTH,C,"",,,RLS,C,I,"20147533",2023-04-19 08:46:02.000
RLS:500-3280682:OWN:C:PHY:20147533,RLS:500-3280682:OWN:C:PHY,RLS:500-3280682:OWN,RLS:500-3280682:OWN:C:ADDR,LTH,C,"",,,RLS,C,I,"20147533",2023-04-19 08:46:02.000
RLS:500-3300226:OWN:C:PHY:20147533,RLS:500-3300226:OWN:C:PHY,RLS:500-3300226:OWN,RLS:500-3300226:OWN:C:ADDR,LTH,C,"",,,RLS,C,I,"20147533",2023-04-19 08:46:02.000
RLS:500-3305080:OWN:C:PHY:20147533,RLS:500-3305080:OWN:C:PHY,RLS:500-3305080:OWN,RLS:500-3305080:OWN:C:ADDR,LTH,C,"",,,RLS,C,I,"20147533",2023-04-19 08:46:02.000
RLS:500-3305803:OWN:C:PHY:20147533,RLS:500-3305803:OWN:C:PHY,RLS:500-3305803:OWN,RLS:500-3305803:OWN:C:ADDR,LTH,C,"",,,RLS,C,I,"20147533",2023-04-19 08:46:02.000
RLS:500-3380258:OWN:C:PHY:20147533,RLS:500-3380258:OWN:C:PHY,RLS:500-3380258:OWN,RLS:500-3380258:OWN:C:ADDR,LTH,C,"",,,RLS,C,I,"20147533",2023-04-19 08:46:02.000
RLS:500-3386200:OWN:C:PHY:20147533,RLS:500-3386200:OWN:C:PHY,RLS:500-3386200:OWN,RLS:500-3386200:OWN:C:ADDR,LTH,C,"",,,RLS,C,I,"20147533",2023-04-19 08:46:02.000
RLS:500-6050000:OWN:C:PHY:20147533,RLS:500-6050000:OWN:C:PHY,RLS:500-6050000:OWN,RLS:500-6050000:OWN:C:ADDR,LTH,C,"",,,RLS,C,I,"20147533",2023-04-19 08:46:02.000
RLS:500-8205060:OWN:C:PHY:20147533,RLS:500-8205060:OWN:C:PHY,RLS:500-8205060:OWN,RLS:500-8205060:OWN:C:ADDR,LTH,C,"",,,RLS,C,I,"20147533",2023-04-19 08:46:02.000
RLS:500-8300030:OWN:C:PHY:20147533,RLS:500-8300030:OWN:C:PHY,RLS:500-8300030:OWN,RLS:500-8300030:OWN:C:ADDR,LTH,C,"",,,RLS,C,I,"20147533",2023-04-19 08:46:02.000
RLS:500-8300035:OWN:C:PHY:20147533,RLS:500-8300035:OWN:C:PHY,RLS:500-8300035:OWN,RLS:500-8300035:OWN:C:ADDR,LTH,C,"",,,RLS,C,I,"20147533",2023-04-19 08:46:02.000
RLS:500-6050000:INS:C:PHY:20147533,RLS:500-6050000:INS:C:PHY,RLS:500-6050000:INS,RLS:500-6050000:INS:C:ADDR,LTH,C,"",,,RLS,C,I,"20147533",2023-04-19 08:46:02.000
RLS:500-0000028:OWN:C:PHY:20147533,RLS:500-0000028:OWN:C:PHY,RLS:500-0000028:OWN,RLS:500-0000028:OWN:C:ADDR,LTH,C,"",,,RLS,C,I,"20147533",2023-04-19 08:46:02.000
RLS:500-0508203:OWN:C:PHY:20147533,RLS:500-0508203:OWN:C:PHY,RLS:500-0508203:OWN,RLS:500-0508203:OWN:C:ADDR,LTH,C,"",,,RLS,C,I,"20147533",2023-04-19 08:46:02.000
RLS:500-0666000:OWN:C:PHY:20147533,RLS:500-0666000:OWN:C:PHY,RLS:500-0666000:OWN,RLS:500-0666000:OWN:C:ADDR,LTH,C,"",,,RLS,C,I,"20147533",2023-04-19 08:46:02.000
RLS:500-0000028:INS:C:PHY:20147533,RLS:500-0000028:INS:C:PHY,RLS:500-0000028:INS,RLS:500-0000028:INS:C:ADDR,LTH,C,"",,,RLS,C,I,"20147533",2023-04-19 08:46:02.000
RLS:500-0008000:INS:C:PHY:20147533,RLS:500-0008000:INS:C:PHY,RLS:500-0008000:INS,RLS:500-0008000:INS:C:ADDR,LTH,C,"",,,RLS,C,I,"20147533",2023-04-19 08:46:02.000
RLS:500-0008003:INS:C:PHY:20147533,RLS:500-0008003:INS:C:PHY,RLS:500-0008003:INS,RLS:500-0008003:INS:C:ADDR,LTH,C,"",,,RLS,C,I,"20147533",2023-04-19 08:46:02.000
RLS:500-0008803:INS:C:PHY:20147533,RLS:500-0008803:INS:C:PHY,RLS:500-0008803:INS,RLS:500-0008803:INS:C:ADDR,LTH,C,"",,,RLS,C,I,"20147533",2023-04-19 08:46:02.000
RLS:500-0008820:INS:C:PHY:20147533,RLS:500-0008820:INS:C:PHY,RLS:500-0008820:INS,RLS:500-0008820:INS:C:ADDR,LTH,C,"",,,RLS,C,I,"20147533",2023-04-19 08:46:02.000
RLS:500-0052003:INS:C:PHY:20147533,RLS:500-0052003:INS:C:PHY,RLS:500-0052003:INS,RLS:500-0052003:INS:C:ADDR,LTH,C,"",,,RLS,C,I,"20147533",2023-04-19 08:46:02.000
RLS:500-0080886:INS:C:PHY:20147533,RLS:500-0080886:INS:C:PHY,RLS:500-0080886:INS,RLS:500-0080886:INS:C:ADDR,LTH,C,"",,,RLS,C,I,"20147533",2023-04-19 08:46:02.000
RLS:500-0085660:INS:C:PHY:20147533,RLS:500-0085660:INS:C:PHY,RLS:500-0085660:INS,RLS:500-0085660:INS:C:ADDR,LTH,C,"",,,RLS,C,I,"20147533",2023-04-19 08:46:02.000
RLS:500-0200020:INS:C:PHY:20147533,RLS:500-0200020:INS:C:PHY,RLS:500-0200020:INS,RLS:500-0200020:INS:C:ADDR,LTH,C,"",,,RLS,C,I,"20147533",2023-04-19 08:46:02.000
RLS:500-0300202:INS:C:PHY:20147533,RLS:500-0300202:INS:C:PHY,RLS:500-0300202:INS,RLS:500-0300202:INS:C:ADDR,LTH,C,"",,,RLS,C,I,"20147533",2023-04-19 08:46:02.000
RLS:500-0300860:INS:C:PHY:20147533,RLS:500-0300860:INS:C:PHY,RLS:500-0300860:INS,RLS:500-0300860:INS:C:ADDR,LTH,C,"",,,RLS,C,I,"20147533",2023-04-19 08:46:02.000
RLS:500-0500002:INS:C:PHY:20147533,RLS:500-0500002:INS:C:PHY,RLS:500-0500002:INS,RLS:500-0500002:INS:C:ADDR,LTH,C,"",,,RLS,C,I,"20147533",2023-04-19 08:46:02.000
RLS:500-0500550:INS:C:PHY:20147533,RLS:500-0500550:INS:C:PHY,RLS:500-0500550:INS,RLS:500-0500550:INS:C:ADDR,LTH,C,"",,,RLS,C,I,"20147533",2023-04-19 08:46:02.000
RLS:500-0500852:INS:C:PHY:20147533,RLS:500-0500852:INS:C:PHY,RLS:500-0500852:INS,RLS:500-0500852:INS:C:ADDR,LTH,C,"",,,RLS,C,I,"20147533",2023-04-19 08:46:02.000
RLS:500-0623060:INS:C:PHY:20147533,RLS:500-0623060:INS:C:PHY,RLS:500-0623060:INS,RLS:500-0623060:INS:C:ADDR,LTH,C,"",,,RLS,C,I,"20147533",2023-04-19 08:46:02.000
RLS:500-0650380:INS:C:PHY:20147533,RLS:500-0650380:INS:C:PHY,RLS:500-0650380:INS,RLS:500-0650380:INS:C:ADDR,LTH,C,"",,,RLS,C,I,"20147533",2023-04-19 08:46:02.000
RLS:500-2000000:INS:C:PHY:20147533,RLS:500-2000000:INS:C:PHY,RLS:500-2000000:INS,RLS:500-2000000:INS:C:ADDR,LTH,C,"",,,RLS,C,I,"20147533",2023-04-19 08:46:02.000
RLS:500-2030605:INS:C:PHY:20147533,RLS:500-2030605:INS:C:PHY,RLS:500-2030605:INS,RLS:500-2030605:INS:C:ADDR,LTH,C,"",,,RLS,C,I,"20147533",2023-04-19 08:46:02.000
RLS:500-2035002:INS:C:PHY:20147533,RLS:500-2035002:INS:C:PHY,RLS:500-2035002:INS,RLS:500-2035002:INS:C:ADDR,LTH,C,"",,,RLS,C,I,"20147533",2023-04-19 08:46:02.000
RLS:500-2060035:INS:C:PHY:20147533,RLS:500-2060035:INS:C:PHY,RLS:500-2060035:INS,RLS:500-2060035:INS:C:ADDR,LTH,C,"",,,RLS,C,I,"20147533",2023-04-19 08:46:02.000
RLS:500-2066625:INS:C:PHY:20147533,RLS:500-2066625:INS:C:PHY,RLS:500-2066625:INS,RLS:500-2066625:INS:C:ADDR,LTH,C,"",,,RLS,C,I,"20147533",2023-04-19 08:46:02.000
RLS:500-2230638:INS:C:PHY:20147533,RLS:500-2230638:INS:C:PHY,RLS:500-2230638:INS,RLS:500-2230638:INS:C:ADDR,LTH,C,"",,,RLS,C,I,"20147533",2023-04-19 08:46:02.000
RLS:500-2253020:INS:C:PHY:20147533,RLS:500-2253020:INS:C:PHY,RLS:500-2253020:INS,RLS:500-2253020:INS:C:ADDR,LTH,C,"",,,RLS,C,I,"20147533",2023-04-19 08:46:02.000
RLS:500-2300080:INS:C:PHY:20147533,RLS:500-2300080:INS:C:PHY,RLS:500-2300080:INS,RLS:500-2300080:INS:C:ADDR,LTH,C,"",,,RLS,C,I,"20147533",2023-04-19 08:46:02.000
RLS:500-3003852:INS:C:PHY:20147533,RLS:500-3003852:INS:C:PHY,RLS:500-3003852:INS,RLS:500-3003852:INS:C:ADDR,LTH,C,"",,,RLS,C,I,"20147533",2023-04-19 08:46:02.000
RLS:500-3080520:INS:C:PHY:20147533,RLS:500-3080520:INS:C:PHY,RLS:500-3080520:INS,RLS:500-3080520:INS:C:ADDR,LTH,C,"",,,RLS,C,I,"20147533",2023-04-19 08:46:02.000
RLS:500-3200000:INS:C:PHY:20147533,RLS:500-3200000:INS:C:PHY,RLS:500-3200000:INS,RLS:500-3200000:INS:C:ADDR,LTH,C,"",,,RLS,C,I,"20147533",2023-04-19 08:46:02.000
RLS:500-3200003:INS:C:PHY:20147533,RLS:500-3200003:INS:C:PHY,RLS:500-3200003:INS,RLS:500-3200003:INS:C:ADDR,LTH,C,"",,,RLS,C,I,"20147533",2023-04-19 08:46:02.000
RLS:500-3200085:INS:C:PHY:20147533,RLS:500-3200085:INS:C:PHY,RLS:500-3200085:INS,RLS:500-3200085:INS:C:ADDR,LTH,C,"",,,RLS,C,I,"20147533",2023-04-19 08:46:02.000
RLS:500-3203800:INS:C:PHY:20147533,RLS:500-3203800:INS:C:PHY,RLS:500-3203800:INS,RLS:500-3203800:INS:C:ADDR,LTH,C,"",,,RLS,C,I,"20147533",2023-04-19 08:46:02.000
RLS:500-3262200:INS:C:PHY:20147533,RLS:500-3262200:INS:C:PHY,RLS:500-3262200:INS,RLS:500-3262200:INS:C:ADDR,LTH,C,"",,,RLS,C,I,"20147533",2023-04-19 08:46:02.000
RLS:500-3280658:INS:C:PHY:20147533,RLS:500-3280658:INS:C:PHY,RLS:500-3280658:INS,RLS:500-3280658:INS:C:ADDR,LTH,C,"",,,RLS,C,I,"20147533",2023-04-19 08:46:02.000
RLS:500-3280682:INS:C:PHY:20147533,RLS:500-3280682:INS:C:PHY,RLS:500-3280682:INS,RLS:500-3280682:INS:C:ADDR,LTH,C,"",,,RLS,C,I,"20147533",2023-04-19 08:46:02.000
RLS:500-3305080:INS:C:PHY:20147533,RLS:500-3305080:INS:C:PHY,RLS:500-3305080:INS,RLS:500-3305080:INS:C:ADDR,LTH,C,"",,,RLS,C,I,"20147533",2023-04-19 08:46:02.000
RLS:500-3305803:INS:C:PHY:20147533,RLS:500-3305803:INS:C:PHY,RLS:500-3305803:INS,RLS:500-3305803:INS:C:ADDR,LTH,C,"",,,RLS,C,I,"20147533",2023-04-19 08:46:02.000
RLS:500-3386200:INS:C:PHY:20147533,RLS:500-3386200:INS:C:PHY,RLS:500-3386200:INS,RLS:500-3386200:INS:C:ADDR,LTH,C,"",,,RLS,C,I,"20147533",2023-04-19 08:46:02.000
RLS:500-0508203:OWN:C:PHY:42200115,RLS:500-0508203:OWN:C:PHY,RLS:500-0508203:OWN,RLS:500-0508203:OWN:C:ADDR,LTH,C,"",,,RLS,C,U,"42200115",2023-04-22 17:31:01.000
RLS:500-0508203:OWN:C:PHY:82981152,RLS:500-0508203:OWN:C:PHY,RLS:500-0508203:OWN,RLS:500-0508203:OWN:C:ADDR,LTH,C,"",,,RLS,C,U,"82981152",2023-12-31 08:13:10.000
RLS:500-0255000:OWN:C:PHY:20147533,RLS:500-0255000:OWN:C:PHY,RLS:500-0255000:OWN,RLS:500-0255000:OWN:C:ADDR,LTH,C,"",,,RLS,C,I,"20147533",2023-04-19 08:46:02.000
RLS:500-0300202:OWN:C:PHY:20147533,RLS:500-0300202:OWN:C:PHY,RLS:500-0300202:OWN,RLS:500-0300202:OWN:C:ADDR,LTH,C,"",,,RLS,C,I,"20147533",2023-04-19 08:46:02.000
RLS:500-6050000:INS:C:PHY:12287456,RLS:500-6050000:INS:C:PHY,RLS:500-6050000:INS,RLS:500-6050000:INS:C:ADDR,LTH,C,"",,,RLS,C,I,"12287456",2023-04-11 16:06:32.000
RLS:500-0008000:OWN:C:PHY:12287456,RLS:500-0008000:OWN:C:PHY,RLS:500-0008000:OWN,RLS:500-0008000:OWN:C:ADDR,LTH,C,"",,,RLS,C,I,"12287456",2023-04-11 16:06:32.000
RLS:500-0008003:OWN:C:PHY:12287456,RLS:500-0008003:OWN:C:PHY,RLS:500-0008003:OWN,RLS:500-0008003:OWN:C:ADDR,LTH,C,"",,,RLS,C,I,"12287456",2023-04-11 16:06:32.000
RLS:500-0008803:OWN:C:PHY:12287456,RLS:500-0008803:OWN:C:PHY,RLS:500-0008803:OWN,RLS:500-0008803:OWN:C:ADDR,LTH,C,"",,,RLS,C,I,"12287456",2023-04-11 16:06:32.000
RLS:500-0008820:OWN:C:PHY:12287456,RLS:500-0008820:OWN:C:PHY,RLS:500-0008820:OWN,RLS:500-0008820:OWN:C:ADDR,LTH,C,"",,,RLS,C,I,"12287456",2023-04-11 16:06:32.000
RLS:500-0050000:OWN:C:PHY:12287456,RLS:500-0050000:OWN:C:PHY,RLS:500-0050000:OWN,RLS:500-0050000:OWN:C:ADDR,LTH,C,"",,,RLS,C,I,"12287456",2023-04-11 16:06:32.000
RLS:500-0050033:OWN:C:PHY:12287456,RLS:500-0050033:OWN:C:PHY,RLS:500-0050033:OWN,RLS:500-0050033:OWN:C:ADDR,LTH,C,"",,,RLS,C,I,"12287456",2023-04-11 16:06:32.000
RLS:500-0052003:OWN:C:PHY:12287456,RLS:500-0052003:OWN:C:PHY,RLS:500-0052003:OWN,RLS:500-0052003:OWN:C:ADDR,LTH,C,"",,,RLS,C,I,"12287456",2023-04-11 16:06:32.000
RLS:500-0055030:OWN:C:PHY:12287456,RLS:500-0055030:OWN:C:PHY,RLS:500-0055030:OWN,RLS:500-0055030:OWN:C:ADDR,LTH,C,"",,,RLS,C,I,"12287456",2023-04-11 16:06:32.000
RLS:500-0055305:OWN:C:PHY:12287456,RLS:500-0055305:OWN:C:PHY,RLS:500-0055305:OWN,RLS:500-0055305:OWN:C:ADDR,LTH,C,"",,,RLS,C,I,"12287456",2023-04-11 16:06:32.000
RLS:500-0055520:OWN:C:PHY:12287456,RLS:500-0055520:OWN:C:PHY,RLS:500-0055520:OWN,RLS:500-0055520:OWN:C:ADDR,LTH,C,"",,,RLS,C,I,"12287456",2023-04-11 16:06:32.000
RLS:500-0080550:OWN:C:PHY:12287456,RLS:500-0080550:OWN:C:PHY,RLS:500-0080550:OWN,RLS:500-0080550:OWN:C:ADDR,LTH,C,"",,,RLS,C,I,"12287456",2023-04-11 16:06:32.000
RLS:500-0080886:OWN:C:PHY:12287456,RLS:500-0080886:OWN:C:PHY,RLS:500-0080886:OWN,RLS:500-0080886:OWN:C:ADDR,LTH,C,"",,,RLS,C,I,"12287456",2023-04-11 16:06:32.000
RLS:500-0085660:OWN:C:PHY:12287456,RLS:500-0085660:OWN:C:PHY,RLS:500-0085660:OWN,RLS:500-0085660:OWN:C:ADDR,LTH,C,"",,,RLS,C,I,"12287456",2023-04-11 16:06:32.000
RLS:500-0200020:OWN:C:PHY:12287456,RLS:500-0200020:OWN:C:PHY,RLS:500-0200020:OWN,RLS:500-0200020:OWN:C:ADDR,LTH,C,"",,,RLS,C,I,"12287456",2023-04-11 16:06:32.000
RLS:500-0255000:OWN:C:PHY:12287456,RLS:500-0255000:OWN:C:PHY,RLS:500-0255000:OWN,RLS:500-0255000:OWN:C:ADDR,LTH,C,"",,,RLS,C,I,"12287456",2023-04-11 16:06:32.000
RLS:500-0300202:OWN:C:PHY:12287456,RLS:500-0300202:OWN:C:PHY,RLS:500-0300202:OWN,RLS:500-0300202:OWN:C:ADDR,LTH,C,"",,,RLS,C,I,"12287456",2023-04-11 16:06:32.000
RLS:500-0300305:OWN:C:PHY:12287456,RLS:500-0300305:OWN:C:PHY,RLS:500-0300305:OWN,RLS:500-0300305:OWN:C:ADDR,LTH,C,"",,,RLS,C,I,"12287456",2023-04-11 16:06:32.000
RLS:500-0300860:OWN:C:PHY:12287456,RLS:500-0300860:OWN:C:PHY,RLS:500-0300860:OWN,RLS:500-0300860:OWN:C:ADDR,LTH,C,"",,,RLS,C,I,"12287456",2023-04-11 16:06:32.000
RLS:500-0500002:OWN:C:PHY:12287456,RLS:500-0500002:OWN:C:PHY,RLS:500-0500002:OWN,RLS:500-0500002:OWN:C:ADDR,LTH,C,"",,,RLS,C,I,"12287456",2023-04-11 16:06:32.000
RLS:500-0500550:OWN:C:PHY:12287456,RLS:500-0500550:OWN:C:PHY,RLS:500-0500550:OWN,RLS:500-0500550:OWN:C:ADDR,LTH,C,"",,,RLS,C,I,"12287456",2023-04-11 16:06:32.000
RLS:500-0500852:OWN:C:PHY:12287456,RLS:500-0500852:OWN:C:PHY,RLS:500-0500852:OWN,RLS:500-0500852:OWN:C:ADDR,LTH,C,"",,,RLS,C,I,"12287456",2023-04-11 16:06:32.000
RLS:500-0508203:OWN:C:PHY:12287456,RLS:500-0508203:OWN:C:PHY,RLS:500-0508203:OWN,RLS:500-0508203:OWN:C:ADDR,LTH,C,"",,,RLS,C,I,"12287456",2023-04-11 16:06:32.000
RLS:500-3200003:INS:C:PHY:12287456,RLS:500-3200003:INS:C:PHY,RLS:500-3200003:INS,RLS:500-3200003:INS:C:ADDR,LTH,C,"",,,RLS,C,I,"12287456",2023-04-11 16:06:32.000
RLS:500-3200085:INS:C:PHY:12287456,RLS:500-3200085:INS:C:PHY,RLS:500-3200085:INS,RLS:500-3200085:INS:C:ADDR,LTH,C,"",,,RLS,C,I,"12287456",2023-04-11 16:06:32.000
RLS:500-3203800:INS:C:PHY:12287456,RLS:500-3203800:INS:C:PHY,RLS:500-3203800:INS,RLS:500-3203800:INS:C:ADDR,LTH,C,"",,,RLS,C,I,"12287456",2023-04-11 16:06:32.000
RLS:500-3262200:INS:C:PHY:12287456,RLS:500-3262200:INS:C:PHY,RLS:500-3262200:INS,RLS:500-3262200:INS:C:ADDR,LTH,C,"",,,RLS,C,I,"12287456",2023-04-11 16:06:32.000
RLS:500-3280658:INS:C:PHY:12287456,RLS:500-3280658:INS:C:PHY,RLS:500-3280658:INS,RLS:500-3280658:INS:C:ADDR,LTH,C,"",,,RLS,C,I,"12287456",2023-04-11 16:06:32.000
RLS:500-3280682:INS:C:PHY:12287456,RLS:500-3280682:INS:C:PHY,RLS:500-3280682:INS,RLS:500-3280682:INS:C:ADDR,LTH,C,"",,,RLS,C,I,"12287456",2023-04-11 16:06:32.000
RLS:500-3305080:INS:C:PHY:12287456,RLS:500-3305080:INS:C:PHY,RLS:500-3305080:INS,RLS:500-3305080:INS:C:ADDR,LTH,C,"",,,RLS,C,I,"12287456",2023-04-11 16:06:32.000
RLS:500-3305803:INS:C:PHY:12287456,RLS:500-3305803:INS:C:PHY,RLS:500-3305803:INS,RLS:500-3305803:INS:C:ADDR,LTH,C,"",,,RLS,C,I,"12287456",2023-04-11 16:06:32.000
RLS:500-3386200:INS:C:PHY:12287456,RLS:500-3386200:INS:C:PHY,RLS:500-3386200:INS,RLS:500-3386200:INS:C:ADDR,LTH,C,"",,,RLS,C,I,"12287456",2023-04-11 16:06:32.000
RLS:500-0000028:OWN:C:PHY:12287456,RLS:500-0000028:OWN:C:PHY,RLS:500-0000028:OWN,RLS:500-0000028:OWN:C:ADDR,LTH,C,"",,,RLS,C,I,"12287456",2023-04-11 16:06:32.000
RLS:500-0623008:OWN:C:PHY:12287456,RLS:500-0623008:OWN:C:PHY,RLS:500-0623008:OWN,RLS:500-0623008:OWN:C:ADDR,LTH,C,"",,,RLS,C,I,"12287456",2023-04-11 16:06:32.000
RLS:500-0623060:OWN:C:PHY:12287456,RLS:500-0623060:OWN:C:PHY,RLS:500-0623060:OWN,RLS:500-0623060:OWN:C:ADDR,LTH,C,"",,,RLS,C,I,"12287456",2023-04-11 16:06:32.000
RLS:500-0650380:OWN:C:PHY:12287456,RLS:500-0650380:OWN:C:PHY,RLS:500-0650380:OWN,RLS:500-0650380:OWN:C:ADDR,LTH,C,"",,,RLS,C,I,"12287456",2023-04-11 16:06:32.000
RLS:500-0660000:OWN:C:PHY:12287456,RLS:500-0660000:OWN:C:PHY,RLS:500-0660000:OWN,RLS:500-0660000:OWN:C:ADDR,LTH,C,"",,,RLS,C,I,"12287456",2023-04-11 16:06:32.000
RLS:500-0660683:OWN:C:PHY:12287456,RLS:500-0660683:OWN:C:PHY,RLS:500-0660683:OWN,RLS:500-0660683:OWN:C:ADDR,LTH,C,"",,,RLS,C,I,"12287456",2023-04-11 16:06:32.000
RLS:500-0666000:OWN:C:PHY:12287456,RLS:500-0666000:OWN:C:PHY,RLS:500-0666000:OWN,RLS:500-0666000:OWN:C:ADDR,LTH,C,"",,,RLS,C,I,"12287456",2023-04-11 16:06:32.000
RLS:500-0800000:OWN:C:PHY:12287456,RLS:500-0800000:OWN:C:PHY,RLS:500-0800000:OWN,RLS:500-0800000:OWN:C:ADDR,LTH,C,"",,,RLS,C,I,"12287456",2023-04-11 16:06:32.000
RLS:500-0800805:OWN:C:PHY:12287456,RLS:500-0800805:OWN:C:PHY,RLS:500-0800805:OWN,RLS:500-0800805:OWN:C:ADDR,LTH,C,"",,,RLS,C,I,"12287456",2023-04-11 16:06:32.000
RLS:500-2000000:OWN:C:PHY:12287456,RLS:500-2000000:OWN:C:PHY,RLS:500-2000000:OWN,RLS:500-2000000:OWN:C:ADDR,LTH,C,"",,,RLS,C,I,"12287456",2023-04-11 16:06:32.000
RLS:500-2026868:OWN:C:PHY:12287456,RLS:500-2026868:OWN:C:PHY,RLS:500-2026868:OWN,RLS:500-2026868:OWN:C:ADDR,LTH,C,"",,,RLS,C,I,"12287456",2023-04-11 16:06:32.000
RLS:500-2030605:OWN:C:PHY:12287456,RLS:500-2030605:OWN:C:PHY,RLS:500-2030605:OWN,RLS:500-2030605:OWN:C:ADDR,LTH,C,"",,,RLS,C,I,"12287456",2023-04-11 16:06:32.000
RLS:500-2035002:OWN:C:PHY:12287456,RLS:500-2035002:OWN:C:PHY,RLS:500-2035002:OWN,RLS:500-2035002:OWN:C:ADDR,LTH,C,"",,,RLS,C,I,"12287456",2023-04-11 16:06:32.000
RLS:500-2060035:OWN:C:PHY:12287456,RLS:500-2060035:OWN:C:PHY,RLS:500-2060035:OWN,RLS:500-2060035:OWN:C:ADDR,LTH,C,"",,,RLS,C,I,"12287456",2023-04-11 16:06:32.000
RLS:500-2066625:OWN:C:PHY:12287456,RLS:500-2066625:OWN:C:PHY,RLS:500-2066625:OWN,RLS:500-2066625:OWN:C:ADDR,LTH,C,"",,,RLS,C,I,"12287456",2023-04-11 16:06:32.000
RLS:500-2230638:OWN:C:PHY:12287456,RLS:500-2230638:OWN:C:PHY,RLS:500-2230638:OWN,RLS:500-2230638:OWN:C:ADDR,LTH,C,"",,,RLS,C,I,"12287456",2023-04-11 16:06:32.000
RLS:500-2253020:OWN:C:PHY:12287456,RLS:500-2253020:OWN:C:PHY,RLS:500-2253020:OWN,RLS:500-2253020:OWN:C:ADDR,LTH,C,"",,,RLS,C,I,"12287456",2023-04-11 16:06:32.000
RLS:500-2300080:OWN:C:PHY:12287456,RLS:500-2300080:OWN:C:PHY,RLS:500-2300080:OWN,RLS:500-2300080:OWN:C:ADDR,LTH,C,"",,,RLS,C,I,"12287456",2023-04-11 16:06:32.000
RLS:500-3003852:OWN:C:PHY:12287456,RLS:500-3003852:OWN:C:PHY,RLS:500-3003852:OWN,RLS:500-3003852:OWN:C:ADDR,LTH,C,"",,,RLS,C,I,"12287456",2023-04-11 16:06:32.000
RLS:500-3080520:OWN:C:PHY:12287456,RLS:500-3080520:OWN:C:PHY,RLS:500-3080520:OWN,RLS:500-3080520:OWN:C:ADDR,LTH,C,"",,,RLS,C,I,"12287456",2023-04-11 16:06:32.000
RLS:500-3200000:OWN:C:PHY:12287456,RLS:500-3200000:OWN:C:PHY,RLS:500-3200000:OWN,RLS:500-3200000:OWN:C:ADDR,LTH,C,"",,,RLS,C,I,"12287456",2023-04-11 16:06:32.000
RLS:500-3200003:OWN:C:PHY:12287456,RLS:500-3200003:OWN:C:PHY,RLS:500-3200003:OWN,RLS:500-3200003:OWN:C:ADDR,LTH,C,"",,,RLS,C,I,"12287456",2023-04-11 16:06:32.000
RLS:500-3200085:OWN:C:PHY:12287456,RLS:500-3200085:OWN:C:PHY,RLS:500-3200085:OWN,RLS:500-3200085:OWN:C:ADDR,LTH,C,"",,,RLS,C,I,"12287456",2023-04-11 16:06:32.000
RLS:500-3203800:OWN:C:PHY:12287456,RLS:500-3203800:OWN:C:PHY,RLS:500-3203800:OWN,RLS:500-3203800:OWN:C:ADDR,LTH,C,"",,,RLS,C,I,"12287456",2023-04-11 16:06:32.000
RLS:500-3208002:OWN:C:PHY:12287456,RLS:500-3208002:OWN:C:PHY,RLS:500-3208002:OWN,RLS:500-3208002:OWN:C:ADDR,LTH,C,"",,,RLS,C,I,"12287456",2023-04-11 16:06:32.000
RLS:500-3262200:OWN:C:PHY:12287456,RLS:500-3262200:OWN:C:PHY,RLS:500-3262200:OWN,RLS:500-3262200:OWN:C:ADDR,LTH,C,"",,,RLS,C,I,"12287456",2023-04-11 16:06:32.000
RLS:500-3280658:OWN:C:PHY:12287456,RLS:500-3280658:OWN:C:PHY,RLS:500-3280658:OWN,RLS:500-3280658:OWN:C:ADDR,LTH,C,"",,,RLS,C,I,"12287456",2023-04-11 16:06:32.000
RLS:500-3280682:OWN:C:PHY:12287456,RLS:500-3280682:OWN:C:PHY,RLS:500-3280682:OWN,RLS:500-3280682:OWN:C:ADDR,LTH,C,"",,,RLS,C,I,"12287456",2023-04-11 16:06:32.000
RLS:500-3300226:OWN:C:PHY:12287456,RLS:500-3300226:OWN:C:PHY,RLS:500-3300226:OWN,RLS:500-3300226:OWN:C:ADDR,LTH,C,"",,,RLS,C,I,"12287456",2023-04-11 16:06:32.000
RLS:500-3305080:OWN:C:PHY:12287456,RLS:500-3305080:OWN:C:PHY,RLS:500-3305080:OWN,RLS:500-3305080:OWN:C:ADDR,LTH,C,"",,,RLS,C,I,"12287456",2023-04-11 16:06:32.000
RLS:500-3305803:OWN:C:PHY:12287456,RLS:500-3305803:OWN:C:PHY,RLS:500-3305803:OWN,RLS:500-3305803:OWN:C:ADDR,LTH,C,"",,,RLS,C,I,"12287456",2023-04-11 16:06:32.000
RLS:500-3380258:OWN:C:PHY:12287456,RLS:500-3380258:OWN:C:PHY,RLS:500-3380258:OWN,RLS:500-3380258:OWN:C:ADDR,LTH,C,"",,,RLS,C,I,"12287456",2023-04-11 16:06:32.000
RLS:500-3386200:OWN:C:PHY:12287456,RLS:500-3386200:OWN:C:PHY,RLS:500-3386200:OWN,RLS:500-3386200:OWN:C:ADDR,LTH,C,"",,,RLS,C,I,"12287456",2023-04-11 16:06:32.000
RLS:500-6050000:OWN:C:PHY:12287456,RLS:500-6050000:OWN:C:PHY,RLS:500-6050000:OWN,RLS:500-6050000:OWN:C:ADDR,LTH,C,"",,,RLS,C,I,"12287456",2023-04-11 16:06:32.000
RLS:500-8205060:OWN:C:PHY:12287456,RLS:500-8205060:OWN:C:PHY,RLS:500-8205060:OWN,RLS:500-8205060:OWN:C:ADDR,LTH,C,"",,,RLS,C,I,"12287456",2023-04-11 16:06:32.000
RLS:500-8205828:OWN:C:PHY:12287456,RLS:500-8205828:OWN:C:PHY,RLS:500-8205828:OWN,RLS:500-8205828:OWN:C:ADDR,LTH,C,"",,,RLS,C,I,"12287456",2023-04-11 16:06:32.000
RLS:500-8300030:OWN:C:PHY:12287456,RLS:500-8300030:OWN:C:PHY,RLS:500-8300030:OWN,RLS:500-8300030:OWN:C:ADDR,LTH,C,"",,,RLS,C,I,"12287456",2023-04-11 16:06:32.000
RLS:500-8300035:OWN:C:PHY:12287456,RLS:500-8300035:OWN:C:PHY,RLS:500-8300035:OWN,RLS:500-8300035:OWN:C:ADDR,LTH,C,"",,,RLS,C,I,"12287456",2023-04-11 16:06:32.000
RLS:500-0000028:INS:C:PHY:12287456,RLS:500-0000028:INS:C:PHY,RLS:500-0000028:INS,RLS:500-0000028:INS:C:ADDR,LTH,C,"",,,RLS,C,I,"12287456",2023-04-11 16:06:32.000
RLS:500-0008000:INS:C:PHY:12287456,RLS:500-0008000:INS:C:PHY,RLS:500-0008000:INS,RLS:500-0008000:INS:C:ADDR,LTH,C,"",,,RLS,C,I,"12287456",2023-04-11 16:06:32.000
RLS:500-0008003:INS:C:PHY:12287456,RLS:500-0008003:INS:C:PHY,RLS:500-0008003:INS,RLS:500-0008003:INS:C:ADDR,LTH,C,"",,,RLS,C,I,"12287456",2023-04-11 16:06:32.000
RLS:500-0008803:INS:C:PHY:12287456,RLS:500-0008803:INS:C:PHY,RLS:500-0008803:INS,RLS:500-0008803:INS:C:ADDR,LTH,C,"",,,RLS,C,I,"12287456",2023-04-11 16:06:32.000
RLS:500-0008820:INS:C:PHY:12287456,RLS:500-0008820:INS:C:PHY,RLS:500-0008820:INS,RLS:500-0008820:INS:C:ADDR,LTH,C,"",,,RLS,C,I,"12287456",2023-04-11 16:06:32.000
RLS:500-0052003:INS:C:PHY:12287456,RLS:500-0052003:INS:C:PHY,RLS:500-0052003:INS,RLS:500-0052003:INS:C:ADDR,LTH,C,"",,,RLS,C,I,"12287456",2023-04-11 16:06:32.000
RLS:500-0080886:INS:C:PHY:12287456,RLS:500-0080886:INS:C:PHY,RLS:500-0080886:INS,RLS:500-0080886:INS:C:ADDR,LTH,C,"",,,RLS,C,I,"12287456",2023-04-11 16:06:32.000
RLS:500-0085660:INS:C:PHY:12287456,RLS:500-0085660:INS:C:PHY,RLS:500-0085660:INS,RLS:500-0085660:INS:C:ADDR,LTH,C,"",,,RLS,C,I,"12287456",2023-04-11 16:06:32.000
RLS:500-0200020:INS:C:PHY:12287456,RLS:500-0200020:INS:C:PHY,RLS:500-0200020:INS,RLS:500-0200020:INS:C:ADDR,LTH,C,"",,,RLS,C,I,"12287456",2023-04-11 16:06:32.000
RLS:500-0300202:INS:C:PHY:12287456,RLS:500-0300202:INS:C:PHY,RLS:500-0300202:INS,RLS:500-0300202:INS:C:ADDR,LTH,C,"",,,RLS,C,I,"12287456",2023-04-11 16:06:32.000
RLS:500-0300860:INS:C:PHY:12287456,RLS:500-0300860:INS:C:PHY,RLS:500-0300860:INS,RLS:500-0300860:INS:C:ADDR,LTH,C,"",,,RLS,C,I,"12287456",2023-04-11 16:06:32.000
RLS:500-0500002:INS:C:PHY:12287456,RLS:500-0500002:INS:C:PHY,RLS:500-0500002:INS,RLS:500-0500002:INS:C:ADDR,LTH,C,"",,,RLS,C,I,"12287456",2023-04-11 16:06:32.000
RLS:500-0500550:INS:C:PHY:12287456,RLS:500-0500550:INS:C:PHY,RLS:500-0500550:INS,RLS:500-0500550:INS:C:ADDR,LTH,C,"",,,RLS,C,I,"12287456",2023-04-11 16:06:32.000
RLS:500-0500852:INS:C:PHY:12287456,RLS:500-0500852:INS:C:PHY,RLS:500-0500852:INS,RLS:500-0500852:INS:C:ADDR,LTH,C,"",,,RLS,C,I,"12287456",2023-04-11 16:06:32.000
RLS:500-0623060:INS:C:PHY:12287456,RLS:500-0623060:INS:C:PHY,RLS:500-0623060:INS,RLS:500-0623060:INS:C:ADDR,LTH,C,"",,,RLS,C,I,"12287456",2023-04-11 16:06:32.000
RLS:500-0650380:INS:C:PHY:12287456,RLS:500-0650380:INS:C:PHY,RLS:500-0650380:INS,RLS:500-0650380:INS:C:ADDR,LTH,C,"",,,RLS,C,I,"12287456",2023-04-11 16:06:32.000
RLS:500-0666000:INS:C:PHY:12287456,RLS:500-0666000:INS:C:PHY,RLS:500-0666000:INS,RLS:500-0666000:INS:C:ADDR,LTH,C,"",,,RLS,C,I,"12287456",2023-04-11 16:06:32.000
RLS:500-2000000:INS:C:PHY:12287456,RLS:500-2000000:INS:C:PHY,RLS:500-2000000:INS,RLS:500-2000000:INS:C:ADDR,LTH,C,"",,,RLS,C,I,"12287456",2023-04-11 16:06:32.000
RLS:500-2030605:INS:C:PHY:12287456,RLS:500-2030605:INS:C:PHY,RLS:500-2030605:INS,RLS:500-2030605:INS:C:ADDR,LTH,C,"",,,RLS,C,I,"12287456",2023-04-11 16:06:32.000
RLS:500-2035002:INS:C:PHY:12287456,RLS:500-2035002:INS:C:PHY,RLS:500-2035002:INS,RLS:500-2035002:INS:C:ADDR,LTH,C,"",,,RLS,C,I,"12287456",2023-04-11 16:06:32.000
RLS:500-2060035:INS:C:PHY:12287456,RLS:500-2060035:INS:C:PHY,RLS:500-2060035:INS,RLS:500-2060035:INS:C:ADDR,LTH,C,"",,,RLS,C,I,"12287456",2023-04-11 16:06:32.000
RLS:500-2066625:INS:C:PHY:12287456,RLS:500-2066625:INS:C:PHY,RLS:500-2066625:INS,RLS:500-2066625:INS:C:ADDR,LTH,C,"",,,RLS,C,I,"12287456",2023-04-11 16:06:32.000
RLS:500-2230638:INS:C:PHY:12287456,RLS:500-2230638:INS:C:PHY,RLS:500-2230638:INS,RLS:500-2230638:INS:C:ADDR,LTH,C,"",,,RLS,C,I,"12287456",2023-04-11 16:06:32.000
RLS:500-2253020:INS:C:PHY:12287456,RLS:500-2253020:INS:C:PHY,RLS:500-2253020:INS,RLS:500-2253020:INS:C:ADDR,LTH,C,"",,,RLS,C,I,"12287456",2023-04-11 16:06:32.000
RLS:500-2300080:INS:C:PHY:12287456,RLS:500-2300080:INS:C:PHY,RLS:500-2300080:INS,RLS:500-2300080:INS:C:ADDR,LTH,C,"",,,RLS,C,I,"12287456",2023-04-11 16:06:32.000
RLS:500-3003852:INS:C:PHY:12287456,RLS:500-3003852:INS:C:PHY,RLS:500-3003852:INS,RLS:500-3003852:INS:C:ADDR,LTH,C,"",,,RLS,C,I,"12287456",2023-04-11 16:06:32.000
RLS:500-3080520:INS:C:PHY:12287456,RLS:500-3080520:INS:C:PHY,RLS:500-3080520:INS,RLS:500-3080520:INS:C:ADDR,LTH,C,"",,,RLS,C,I,"12287456",2023-04-11 16:06:32.000
RLS:500-3200000:INS:C:PHY:12287456,RLS:500-3200000:INS:C:PHY,RLS:500-3200000:INS,RLS:500-3200000:INS:C:ADDR,LTH,C,"",,,RLS,C,I,"12287456",2023-04-11 16:06:32.000
